lab0/part2/waveform.vcd
$version Generated by VerilatedVcd $end
$timescale 1ps $end

 $scope module TOP $end
  $var wire  4 ; a [3:0] $end
  $var wire  4 < b [3:0] $end
  $var wire  3 = s [2:0] $end
  $var wire  4 > y [3:0] $end
  $scope module alu $end
   $var wire  4 ; a [3:0] $end
   $var wire  4 ? ad [3:0] $end
   $var wire  4 < b [3:0] $end
   $var wire  1 & b1 $end
   $var wire  1 ' b2 $end
   $var wire  1 ( b3 $end
   $var wire  1 B b4 $end
   $var wire  4 C b_complement [3:0] $end
   $var wire  1 # c1 $end
   $var wire  1 $ c2 $end
   $var wire  1 % c3 $end
   $var wire  1 A c4 $end
   $var wire  3 = s [2:0] $end
   $var wire  4 @ su [3:0] $end
   $var wire  4 > y [3:0] $end
   $scope module add1 $end
    $var wire  1 D a $end
    $var wire  1 E b $end
    $var wire  1 X c1 $end
    $var wire  1 # c2 $end
    $var wire  1 X cin $end
    $var wire  1 # cout $end
    $var wire  1 F s $end
    $var wire  1 F s1 $end
   $upscope $end
   $scope module add2 $end
    $var wire  1 G a $end
    $var wire  1 H b $end
    $var wire  1 + c1 $end
    $var wire  1 I c2 $end
    $var wire  1 # cin $end
    $var wire  1 $ cout $end
    $var wire  1 ) s $end
    $var wire  1 * s1 $end
   $upscope $end
   $scope module add3 $end
    $var wire  1 J a $end
    $var wire  1 K b $end
    $var wire  1 . c1 $end
    $var wire  1 L c2 $end
    $var wire  1 $ cin $end
    $var wire  1 % cout $end
    $var wire  1 , s $end
    $var wire  1 - s1 $end
   $upscope $end
   $scope module add4 $end
    $var wire  1 M a $end
    $var wire  1 N b $end
    $var wire  1 1 c1 $end
    $var wire  1 O c2 $end
    $var wire  1 % cin $end
    $var wire  1 A cout $end
    $var wire  1 / s $end
    $var wire  1 0 s1 $end
   $upscope $end
   $scope module sub1 $end
    $var wire  1 D a $end
    $var wire  1 P b $end
    $var wire  1 X c1 $end
    $var wire  1 & c2 $end
    $var wire  1 X cin $end
    $var wire  1 & cout $end
    $var wire  1 Q s $end
    $var wire  1 Q s1 $end
   $upscope $end
   $scope module sub2 $end
    $var wire  1 G a $end
    $var wire  1 R b $end
    $var wire  1 4 c1 $end
    $var wire  1 S c2 $end
    $var wire  1 & cin $end
    $var wire  1 ' cout $end
    $var wire  1 2 s $end
    $var wire  1 3 s1 $end
   $upscope $end
   $scope module sub3 $end
    $var wire  1 J a $end
    $var wire  1 T b $end
    $var wire  1 7 c1 $end
    $var wire  1 U c2 $end
    $var wire  1 ' cin $end
    $var wire  1 ( cout $end
    $var wire  1 5 s $end
    $var wire  1 6 s1 $end
   $upscope $end
   $scope module sub4 $end
    $var wire  1 M a $end
    $var wire  1 V b $end
    $var wire  1 : c1 $end
    $var wire  1 W c2 $end
    $var wire  1 ( cin $end
    $var wire  1 B cout $end
    $var wire  1 8 s $end
    $var wire  1 9 s1 $end
   $upscope $end
  $upscope $end
 $upscope $end
$enddefinitions $end


#0
0#
0$
0%
0&
0'
1(
1)
1*
0+
1,
1-
0.
0/
00
01
12
13
04
05
06
07
08
19
1:
b0100 ;
b0010 <
b000 =
b0110 >
b0110 ?
b0010 @
0A
1B
b1110 C
0D
0E
0F
0G
1H
0I
1J
0K
0L
0M
0N
0O
0P
0Q
1R
0S
1T
1U
1V
0W
0X
#1
1$
1%
1'
0)
0*
0,
1.
1/
02
03
15
b0111 ;
b101 =
b0101 >
b1001 ?
b0101 @
1D
1F
1G
1I
1Q
1S
#2
1#
1&
0(
1*
1+
12
18
0:
b1011 ;
b1101 <
b111 =
b0000 >
b1000 ?
b1110 @
1A
0B
b0011 C
1E
0F
0H
0I
0J
1K
1M
1N
1O
1P
0Q
0T
0U
0V
#3
0#
0$
0%
0&
0'
1)
0+
1,
0.
10
13
16
b0110 ;
b1000 <
b100 =
b1110 >
b1110 ?
0A
b1000 C
0D
0E
1J
0K
0M
0O
0P
0R
0S
1V
#4
1%
1(
0,
0-
00
05
06
08
1:
b1111 ;
b1100 <
b110 =
b0001 >
b1011 ?
b0011 @
1A
1B
b0100 C
1D
1F
1K
1L
1M
1O
1Q
1T
1U
0V
#5
0%
0)
0*
1,
1-
0/
b0100 ;
b0001 <
b100 =
b0101 >
b0101 ?
0A
b1111 C
0D
1E
0G
0K
0L
0M
0N
0O
1P
1R
1V
#6
1'
1)
1*
0,
0-
02
03
16
17
b0010 ;
b0011 >
b0011 ?
b0001 @
1G
0J
1S
0U
#7
0'
0(
1,
1-
12
13
15
07
09
0:
b0110 ;
b0000 <
b111 =
b0000 >
b0110 ?
b0110 @
0B
b0000 C
0E
0F
1J
0P
0Q
0R
0S
0T
0V
#8
1$
0)
0*
0-
1/
10
b1010 ;
b0011 <
b110 =
b0001 >
b1101 ?
b0111 @
1B
b1101 C
1E
1F
1H
1I
0J
1M
1P
1Q
1T
1V
1W
#9
0$
1(
1)
1*
1-
0/
00
02
03
05
06
19
1:
b0100 ;
b001 =
b0111 ?
b0001 @
0G
0I
1J
0M
1U
0W
#10
1$
1%
0(
0)
0*
0-
1/
12
13
15
16
18
0:
b0110 ;
b0111 <
b011 =
b0110 >
b1101 ?
b1111 @
0B
b1001 C
1G
1I
1K
1L
0T
0U
#11
b1110 ;
b1111 <
b101 =
b0001 >
1A
b0001 C
1M
1N
1O
0V
#12
0%
1'
1(
10
02
03
05
17
09
b0011 ;
b1010 <
b010 =
b1100 >
b1001 @
0A
b0110 C
1D
0E
0J
0K
0L
0M
0O
0P
1R
1S
1T
#13
0$
0'
0(
1)
1*
0,
12
13
06
07
19
b1011 ;
b0000 <
b0100 >
b1011 ?
b1011 @
b0000 C
0H
0I
1M
0N
0R
0S
0T
#14
1,
1-
15
16
b1111 ;
b110 =
b0001 >
b1111 ?
b1111 @
1J
#15
1%
1(
0)
0*
0,
0-
0/
11
02
03
05
06
09
b1101 ;
b0100 <
b000 =
b0001 ?
b1001 @
1A
1B
b1100 C
0G
1K
1L
1T
1U
1V
1W
#16
0%
0(
1)
1*
1,
1-
1/
01
12
13
08
b1001 ;
b0110 <
b001 =
b0011 >
b1111 ?
b0011 @
0A
b1010 C
1H
0J
0L
1R
0T
0U
#17
1%
1'
1(
0,
0-
00
02
03
16
17
19
1:
b1110 ;
b1101 <
b0001 >
b1011 ?
b0001 @
1A
b0011 C
0D
1E
1G
0H
1J
1L
1N
1O
1P
1S
0V
0W
#18
1#
1$
1&
0'
0(
0)
1+
1,
0/
10
11
12
15
07
09
0:
b1101 ;
b0111 <
b101 =
b1010 >
b0100 ?
b0110 @
b1001 C
1D
0F
0G
1H
0N
0O
0Q
0R
0S
1V
1W
#19
0#
0$
0%
0&
1(
1)
0+
1-
1/
01
02
05
06
18
b0100 ;
b1011 <
b000 =
b1111 >
b1111 ?
b1001 @
0A
0B
b0101 C
0D
1F
0K
0L
0M
1N
1Q
1T
1U
0V
0W
#20
0/
00
12
13
08
19
1:
b0101 ;
b0010 <
b111 =
b0000 >
b0111 ?
b0011 @
1B
b1110 C
1D
0E
0N
0P
1R
1V
#21
0(
0)
0*
0,
0-
1/
10
02
03
18
0:
b1000 ;
b0000 <
b110 =
b0001 >
b1000 ?
b1000 @
0B
b0000 C
0D
0F
0H
0J
1M
0Q
0R
0T
0U
0V
#22
1%
1(
0/
11
09
b1101 ;
b0100 <
b001 =
b1001 >
b0001 ?
b1001 @
1A
1B
b1100 C
1D
1F
1J
1K
1L
1Q
1T
1U
1V
1W
#23
1#
1$
1&
1'
1)
1,
1/
00
01
13
14
16
17
08
19
1:
b1111 ;
b1111 <
b0000 >
b1110 ?
b0000 @
b0001 C
1E
0F
1G
1H
1I
1N
1O
1P
0Q
0T
0U
0V
0W
#24
0#
0$
0%
0&
0'
0(
1*
1-
0/
12
04
06
07
18
0:
b1001 ;
b1110 <
b1011 >
b0111 ?
b1011 @
0B
b0010 C
0E
1F
0G
0I
0J
0L
0P
1Q
1R
#25
1#
1$
1%
1&
1'
1(
0*
0,
1.
1/
02
14
15
08
1:
b1111 ;
b1011 <
b110 =
b0001 >
b1010 ?
b0100 @
1B
b0101 C
1E
0F
1G
1I
1J
0K
1P
0Q
0R
1T
1U
#26
0#
0$
0&
0'
1*
0-
0.
12
04
05
b0111 ;
b0100 <
b100 =
b0111 >
b1011 ?
b0011 @
0A
b1100 C
0E
1F
0H
0I
1K
1L
0M
0N
0O
0P
1Q
1V
#27
0%
0(
0/
15
16
18
0:
b0001 ;
b0010 <
b001 =
b1111 >
b0011 ?
b1111 @
0B
b1110 C
0G
1H
0J
0K
0L
1R
0U
#28
1/
10
05
06
b1010 ;
b0000 <
b1010 >
b1010 ?
b1010 @
b0000 C
0D
0F
1G
0H
1M
0Q
0R
0T
0V
#29
1%
1(
00
08
1:
b0111 ;
b0100 <
b100 =
b0111 >
b1011 ?
b0011 @
1B
b1100 C
1D
1F
1J
1K
1L
0M
1Q
1T
1U
1V
#30
1#
1$
1&
1'
0)
1+
1-
1.
0/
10
11
03
15
18
09
0:
b1001 <
b110 =
b0000 >
b0000 ?
b1110 @
1A
0B
b0111 C
1E
0F
0K
0L
1N
1P
0Q
1R
1S
0V
#31
b1111 ;
b0001 <
b111 =
1B
b1111 C
1M
0N
1V
1W
#32
0#
0$
0&
0'
0(
1)
0+
0-
0.
13
16
08
b0101 ;
b1110 <
b011 =
b0100 >
b0011 ?
b0111 @
0B
b0010 C
0E
1F
0G
1H
1K
1L
0M
1N
0P
1Q
0S
0T
0U
0V
0W
#33
1'
1(
02
03
05
17
18
b0110 ;
b1101 <
b010 =
b1001 >
b1001 @
b0011 C
0D
1E
1G
0H
1P
1S
#34
0%
0'
0(
1,
1-
1/
01
12
13
06
07
08
b1000 ;
b0110 <
b000 =
b1110 >
b1110 ?
b0010 @
0A
1B
b1010 C
0E
0F
0G
1H
0J
0L
1M
0N
0P
0Q
0S
1V
1W
#35
1#
1&
1'
0*
02
14
15
b1001 ;
b0101 <
b011 =
b0001 >
b0100 @
b1011 C
1D
1E
0H
1P
#36
1$
1%
1(
0)
1*
1+
0-
00
12
03
04
05
16
17
19
1:
b1111 ;
b1101 <
b111 =
b0000 >
b1100 ?
b0010 @
1A
b0011 C
1G
1J
1L
1N
1O
1S
0V
0W
#37
0#
0$
0&
0'
0(
1)
0+
0,
13
15
07
18
0:
b1100 ;
b1110 <
b010 =
b0011 >
b1010 ?
b1110 @
0B
b0010 C
0D
0E
0G
1H
0P
0S
#38
0%
0)
0*
1,
1-
10
02
03
b0101 ;
b1000 <
b1010 >
b1101 ?
b1101 @
0A
b1000 C
1D
1F
0H
0K
0L
0M
0O
1Q
0R
1V
#39
1)
1*
0/
00
12
13
08
09
b0110 ;
b0000 <
b110 =
b0001 >
b0110 ?
b0110 @
b0000 C
0D
0F
1G
0N
0Q
0V
#40
1#
1$
1%
1&
1'
0*
0,
1.
1/
02
14
06
18
19
b0011 ;
b0111 <
b111 =
b0000 >
b1010 ?
b1100 @
b1001 C
1D
1E
1H
1I
0J
1K
1P
1V
#41
0#
0$
0%
0&
0'
1*
1,
0.
0/
12
04
05
b0001 ;
b0110 <
b000 =
b0111 >
b0111 ?
b1011 @
b1010 C
0E
1F
0G
0I
0P
1Q
1R
#42
0)
0*
1/
10
02
03
15
16
08
09
b0000 ;
b1100 <
b110 =
b0000 >
b1100 ?
b0100 @
b0100 C
0D
0F
0H
1N
0Q
0R
1T
0V
#43
1$
1'
1(
0-
0/
00
05
17
19
1:
b0011 ;
b0010 <
b011 =
b0010 >
b0101 ?
b0001 @
1B
b1110 C
1D
1F
1G
1H
1I
0K
0N
1Q
1R
1S
1V
#44
0$
0'
1)
1*
1-
1/
10
12
13
06
07
18
09
0:
b0101 ;
b1010 <
b001 =
b1011 >
b1111 ?
b1011 @
0B
b0110 C
0G
0I
1J
1N
0S
1U
0V
#45
1%
0)
0*
0,
0-
00
02
03
08
19
1:
b0100 <
b110 =
b0001 >
b1001 ?
b0001 @
1B
b1100 C
0H
1K
1L
0N
0R
1V
#46
0%
0(
1)
1*
0/
15
16
18
0:
b0000 ;
b0011 <
b011 =
b0000 >
b0011 ?
b1101 @
0B
b1101 C
0D
1E
1H
0J
0K
0L
1P
0U
#47
1,
1-
1/
10
05
06
08
09
b1111 <
b001 =
b0001 >
b1111 ?
b0001 @
b0001 C
1K
1N
0T
0V
#48
1'
0/
00
15
18
19
b0010 ;
b0101 <
b010 =
b1101 >
b0111 ?
b1101 @
b1011 C
1G
0H
0N
1R
1S
1V
#49
0'
1(
1/
10
05
09
b0100 ;
b1011 <
b1011 >
b1111 ?
b1001 @
b0101 C
0G
1H
1J
0K
1N
0R
0S
1T
1U
0V
#50
1$
1%
1'
0(
0)
0*
0,
1.
00
15
19
b1010 ;
b1110 <
b001 =
b1100 >
b1000 ?
b1100 @
1A
b0010 C
0E
0F
1G
1I
0J
1K
1M
1O
0P
0Q
1R
1S
0T
0U
#51
0$
0%
0'
0-
0.
10
05
b1001 ;
b0000 <
b000 =
b1001 >
b1001 ?
b1001 @
0A
b0000 C
1D
1F
0G
0H
0I
0K
0N
0O
1Q
0R
0S
#52
b100 =
#53
1%
1(
1)
1*
00
12
13
08
1:
b0111 ;
b0100 <
b110 =
b0001 >
b1011 ?
b0011 @
1B
b1100 C
1G
1J
1K
1L
0M
1T
1U
1V
#54
0%
1'
10
02
03
16
17
18
09
0:
b0010 ;
b1001 <
b001 =
b1001 >
b1001 @
0B
b0111 C
0D
1E
0J
0K
0L
1N
1P
1R
1S
0U
0V
#55
1#
1$
1%
1&
0(
0*
1-
1.
0/
11
13
14
15
06
07
08
b0011 ;
b1111 <
b101 =
b1100 >
b0010 ?
b0100 @
1A
b0001 C
1D
0F
1H
1I
1K
0Q
0R
0S
0T
#56
0'
0)
1*
1+
1/
00
01
12
03
04
05
18
19
b1001 ;
b000 =
b1000 >
b1000 ?
b1010 @
0G
0I
1M
1O
#57
1,
0-
0.
15
16
b1101 ;
b1100 >
b1100 ?
b1110 @
1J
1L
#58
0#
0$
0%
0&
1'
1(
1)
0+
1-
10
02
06
09
b1110 ;
b0001 <
b101 =
b1111 >
b1111 ?
b1101 @
0A
1B
b1111 C
0D
1F
1G
0H
0K
0L
0N
0O
1Q
1R
1S
1T
1U
1V
1W
#59
0'
0(
0)
0*
12
13
05
08
b1000 ;
b0101 <
b000 =
b1101 >
b1101 ?
b0011 @
b1011 C
0G
0J
1K
0S
0T
0U
#60
1$
1%
0,
1.
0/
11
b0010 ;
b1111 <
b111 =
b0000 >
b0001 ?
1A
0B
b0001 C
1G
1H
1I
0M
1N
0R
0V
0W
#61
0$
0%
1,
0.
1/
01
02
03
15
16
18
19
b0100 ;
b1000 <
b1100 ?
b1100 @
0A
b1000 C
0E
0F
0G
0H
0I
1J
0K
0P
0Q
1V
#62
1(
12
13
05
06
09
b1100 ;
b0001 <
b1101 ?
b1011 @
1B
b1111 C
1E
1F
1M
0N
1P
1Q
1R
1T
1U
1W
#63
0(
0,
0-
02
03
19
b0000 ;
b1000 <
b011 =
b1000 ?
b1000 @
0B
b1000 C
0E
0F
0J
0M
1N
0P
0Q
0R
0T
0U
0W
#64
1$
1%
1'
1(
1-
1.
0/
11
15
09
b0110 ;
b1010 <
b101 =
b1100 >
b0000 ?
b1100 @
1A
b0110 C
1G
1H
1I
1J
1R
1S
1T
1U
0V
#65
1#
1&
1*
1+
1,
0-
0.
12
05
16
17
b0111 ;
b1101 <
b100 =
b1111 >
b0100 ?
b1010 @
b0011 C
1D
1E
0H
0I
1K
1L
1P
0T
0U
#66
0#
0$
0&
0'
0(
1)
0+
0,
02
15
07
08
b1100 ;
b0111 <
b011 =
b0100 >
b0011 ?
b0101 @
1B
b1001 C
0D
1F
0G
1H
1M
0N
1Q
0R
0S
1V
1W
#67
1(
0)
0*
1/
00
01
05
06
19
1:
b0101 ;
b0100 <
b1001 ?
b0001 @
0A
b1100 C
1D
0E
0H
0M
0P
1T
1U
0W
#68
0%
1)
1*
1,
1-
10
12
13
18
09
0:
b1101 ;
b0010 <
b100 =
b1111 >
b1111 ?
b1011 @
b1110 C
1H
0K
0L
1M
1R
1W
#69
1$
0(
0)
0*
0-
0/
00
15
16
19
b1010 ;
b1011 <
b010 =
b0101 >
b0101 ?
b1111 @
1A
0B
b0101 C
0D
1E
1G
1I
0J
1N
1O
1P
0R
0U
0V
0W
#70
0$
1'
1)
1*
1-
1/
10
02
03
06
08
09
b0010 ;
b1101 <
b001 =
b1111 ?
b0101 @
0A
b0011 C
0H
0I
1K
0M
0O
1R
1S
0T
#71
1#
1&
1(
0*
0,
0-
13
14
05
16
17
18
b1001 ;
b0001 <
b010 =
b0110 >
b1010 ?
b1000 @
1B
b1111 C
1D
0F
0G
0K
1M
0N
0Q
0S
1T
1V
1W
#72
0#
0&
0'
0(
0)
1,
1-
12
04
06
07
08
b0000 ;
b1101 <
b011 =
b0000 >
b1101 ?
b0011 @
0B
b0011 C
0D
1F
1K
0M
1N
1Q
0T
0V
0W
#73
0/
00
18
19
b1000 ;
b100 =
b1101 >
b0101 ?
b1011 @
1A
1M
1O
#74
1)
1*
15
16
b0011 ;
b0100 <
b110 =
b0000 >
b0111 ?
b1111 @
0A
b1100 C
1D
0E
1G
0M
0N
0O
0P
0R
1T
1V
#75
0,
0-
02
03
b1000 ;
b1011 <
b100 =
b1011 >
b0011 ?
b1101 @
1A
b0101 C
0D
1E
0G
1H
0K
1M
1N
1O
1P
0V
#76
0)
0*
1,
1-
08
09
b1100 ;
b1000 <
b011 =
b1000 >
b0100 ?
b0100 @
1B
b1000 C
0E
0F
0H
1J
0P
0Q
0T
1V
1W
#77
1/
10
12
13
05
06
b0000 ;
b1101 <
b111 =
b0000 >
b1101 ?
b0011 @
0A
0B
b0011 C
1E
1F
0J
1K
0M
0O
1P
1Q
1R
0V
0W
#78
1$
1'
1(
0-
02
03
16
17
18
b0011 ;
b1010 <
b001 =
b1001 >
b1001 @
b0110 C
1D
0E
1G
1H
1I
0K
0P
1S
1T
#79
0$
1%
0'
1)
1*
0,
00
12
13
06
07
08
19
1:
b0111 ;
b0100 <
b100 =
b0111 >
b1011 ?
b0011 @
1B
b1100 C
0H
0I
1J
1K
1L
0N
0R
0S
1U
1V
#80
0%
0(
1,
1-
0/
18
0:
b0001 ;
b0110 <
b010 =
b1110 >
b0111 ?
b1011 @
0B
b1010 C
0G
1H
0J
0L
1R
0T
0U
#81
0,
0-
1/
10
b1011 ;
b0000 <
b011 =
b0000 >
b1011 ?
b0000 C
1G
0H
0K
1M
0R
0V
#82
0)
0*
1,
1-
02
03
15
16
b1101 ;
b001 =
b1101 >
b1101 ?
b1101 @
0G
1J
#83
0,
0-
05
06
b0000 ;
b1000 <
b110 =
b0000 >
b1000 ?
b1000 @
b1000 C
0D
0F
0J
0M
1N
0Q
1V
#84
1%
1(
00
08
1:
b1100 ;
b1100 <
b010 =
b0011 >
b0000 @
1A
1B
b0100 C
1J
1K
1L
1M
1O
1T
1U
0V
#85
0%
0(
1)
1*
1,
1-
0/
12
13
15
16
18
0:
b0011 ;
b0100 <
b110 =
b0000 >
b0111 ?
b1111 @
0A
0B
b1100 C
1D
1F
1G
0J
0L
0M
0N
0O
1Q
0U
1V
#86
1#
1$
1%
1&
1'
1(
0)
1+
0,
1.
1/
03
06
08
1:
b0111 ;
b0001 <
b0001 >
b1000 ?
b0110 @
1B
b1111 C
1E
0F
1J
0K
1P
0Q
1R
1S
1U
#87
0#
0$
0%
0&
1)
0+
0-
0.
0/
02
05
16
17
b0010 ;
b011 =
b0000 >
b0011 ?
b0001 @
0D
1F
0J
1Q
0U
#88
0'
0(
0)
0*
1,
1-
15
07
18
0:
b0001 ;
b0100 <
b101 =
b0101 >
b0101 ?
b1101 @
0B
b1100 C
1D
0E
0G
1K
0P
0R
0S
#89
1$
0-
1/
10
12
13
08
09
b0010 ;
b1011 <
b001 =
b0111 >
b1101 ?
b0111 @
b0101 C
0D
1E
1G
1H
1I
0K
1N
1P
0V
#90
1#
1%
1&
1'
1(
1*
1+
00
03
05
17
19
1:
b1111 ;
b1101 <
b111 =
b0000 >
b1100 ?
b0010 @
1A
1B
b0011 C
1D
0F
0H
0I
1J
1K
1L
1M
1O
0Q
1R
1S
0T
#91
0#
0$
0%
0&
0'
0(
0*
0+
0,
0/
02
06
07
09
0:
b1001 ;
b1000 <
b0001 ?
b0001 @
b1000 C
0E
1F
0G
0J
0K
0L
0P
1Q
0R
0S
1V
1W
#92
1%
1/
12
13
15
16
18
19
b0100 ;
b0101 <
b000 =
b1001 >
b1001 ?
b1111 @
0A
0B
b1011 C
0D
1E
1J
1K
1L
0M
0N
0O
1P
1R
0W
#93
1#
1&
1'
1(
1)
0/
10
11
02
14
05
17
09
b1101 ;
b0010 >
b0010 ?
b1000 @
1A
1B
1D
0F
1M
0Q
1W
#94
0#
0%
0&
0'
1*
1,
1-
00
01
12
04
06
07
08
19
1:
b0100 ;
b0010 <
b100 =
b0110 >
b0110 ?
b0010 @
0A
b1110 C
0D
0E
1H
0K
0L
0M
0P
1T
1U
0W
#95
1%
1'
0,
0-
10
11
02
03
16
17
18
09
0:
b1110 ;
b0101 <
b001 =
b1001 >
b0011 ?
b1001 @
1A
b1011 C
1E
1F
1G
0H
1K
1L
1M
1P
1Q
1S
0T
0U
1W
#96
0'
0)
0*
06
07
b0100 ;
b1100 <
b010 =
b1011 >
b0000 ?
b1000 @
0B
b0100 C
0E
0F
0G
0M
1N
0P
0Q
0R
0S
1T
1U
0V
0W
#97
1$
1'
0(
1-
1.
15
08
b0010 ;
b1110 <
b011 =
b0010 >
b0100 @
b0010 C
1G
1H
1I
0J
0L
1R
1S
0T
0U
#98
1#
1&
0'
1*
1+
1,
0-
0.
1/
00
01
12
16
18
19
b1101 ;
b1111 <
b111 =
b0000 >
b1100 ?
b1110 @
b0001 C
1D
1E
0G
0I
1J
1L
1M
1O
1P
0R
0S
#99
0#
0$
0%
0&
1'
1(
1)
0+
0,
0/
02
05
17
08
1:
b0010 ;
b0001 <
b010 =
b1101 >
b0011 ?
b0001 @
0A
1B
b1111 C
0D
1F
1G
0H
0J
0K
0L
0M
0N
0O
1Q
1R
1S
1T
1V
#100
0'
0(
1/
10
12
13
06
07
18
0:
b1011 ;
b0000 <
b111 =
b0000 >
b1011 ?
b1011 @
0B
b0000 C
1D
0E
1M
0P
0R
0S
0T
0V
#101
1#
1$
1&
1'
1(
0)
1+
1,
0/
00
03
16
17
08
1:
b1001 <
b0100 ?
b0010 @
1A
1B
b0111 C
1E
0F
1N
1O
1P
0Q
1R
1S
1T
#102
0#
1%
0&
0(
0*
0+
0,
1-
1.
1/
02
15
06
07
18
0:
b1010 ;
b1110 <
b100 =
b1110 >
b1000 ?
b1100 @
0B
b0010 C
0D
0E
1H
1I
1K
0P
0T
#103
0%
0'
1,
0-
0.
0/
12
13
16
b1011 <
b010 =
b0101 >
b0101 ?
b1111 @
b0101 C
1E
1F
0K
1P
1Q
0R
0S
1T
#104
1#
1%
1&
1'
1)
0,
1-
1.
10
11
02
14
06
08
09
b0011 ;
b1111 <
b100 =
b1111 >
b0010 ?
b0100 @
b0001 C
1D
0F
1K
0M
0O
0Q
0T
#105
0#
0&
1(
0)
1,
0-
0.
03
04
05
16
17
18
b0111 ;
b1110 <
b001 =
b1001 >
b0101 ?
b1001 @
b0010 C
0E
1F
1J
1L
0P
1Q
1R
1S
#106
0$
0%
0'
0(
1)
1*
0,
00
01
12
13
15
07
19
b0000 ;
b0010 <
b101 =
b0010 >
b0010 ?
b1110 @
0A
b1110 C
0D
0F
0G
0I
0J
0K
0L
0N
0Q
0S
1T
1V
#107
1'
1,
1-
1/
10
02
03
06
08
09
b1010 ;
b0101 <
b011 =
b0000 >
b1111 ?
b0101 @
1B
b1011 C
1E
1F
1G
0H
1K
1M
1P
1Q
1S
0T
1W
#108
0'
1(
0/
00
12
13
05
19
1:
b0101 ;
b0010 <
b010 =
b1010 >
b0111 ?
b0011 @
b1110 C
1D
0E
0G
1H
1J
0K
0M
0P
0S
1T
1U
0W
#109
1%
0(
0)
0*
0,
0-
1/
15
16
18
0:
b0100 ;
b0101 <
b011 =
b0100 >
b1001 ?
b1111 @
0B
b1011 C
0D
1E
0H
1K
1L
1P
0T
0U
#110
0%
1)
1*
1,
1-
10
b1111 ;
b0000 <
b100 =
b1111 >
b1111 ?
b0000 C
1D
0E
1G
0K
0L
1M
0P
0R
0V
#111
1$
1%
1(
0)
0*
0,
1.
0/
11
05
06
09
b0110 ;
b1011 <
b101 =
b1101 >
b0001 ?
b1011 @
1A
b0101 C
0D
1E
1H
1I
0M
1N
1P
1T
1U
#112
1'
1,
0-
0.
1/
00
01
02
03
16
17
08
19
1:
b0110 <
b011 =
b0110 >
b1100 ?
b0000 @
0A
1B
b1010 C
0E
0F
1K
1L
0N
0P
0Q
1R
1S
0T
0U
1V
#113
0$
0%
0'
0(
1)
1*
0,
10
12
13
06
07
18
0:
b1010 ;
b0000 <
b111 =
b0000 >
b1010 ?
b1010 @
0B
b0000 C
0H
0I
0J
0K
0L
1M
0R
0S
0V
#114
1(
1,
1-
0/
00
02
03
08
1:
b0100 ;
b0011 <
b110 =
b0001 >
b0111 ?
b0001 @
1B
b1101 C
1E
1F
0G
1H
1J
0M
1P
1Q
1T
1U
1V
#115
0(
0,
0-
1/
10
15
16
09
0:
b0000 ;
b1011 <
b100 =
b1011 >
b1011 ?
b0101 @
0B
b0101 C
0J
1N
0U
0V
#116
1#
1$
1&
0)
1+
1,
12
b0001 ;
b111 =
b0000 >
b1100 ?
b0110 @
1D
0F
0Q
#117
0#
1%
0&
1'
1(
0*
0+
0/
11
02
05
17
18
b1110 ;
b0110 <
b100 =
b1110 >
b0100 ?
b1000 @
1A
1B
b1010 C
0D
0E
1G
1I
1J
1K
1L
1M
0N
0P
1R
1S
0T
1V
1W
#118
1#
0%
1&
0'
0(
1*
1+
00
01
12
15
07
19
b1001 ;
b1011 <
b110 =
b0000 >
b1110 @
0B
b0101 C
1D
1E
0G
0I
0J
0K
0L
1N
1O
1P
0R
0S
1T
0V
0W
#119
0#
0$
0&
1)
0+
0,
13
05
06
08
09
b0011 ;
b0000 <
b011 =
b0011 ?
b0011 @
0A
b0000 C
0E
1F
1G
0H
0M
0N
0O
0P
1Q
0T
#120
1#
1$
1%
1&
1'
1(
0*
1,
1/
02
14
16
17
19
1:
b1111 ;
b1111 <
b100 =
b1111 >
b1110 ?
b0000 @
1A
1B
b0001 C
1E
0F
1H
1I
1J
1K
1L
1M
1N
1O
1P
0Q
#121
0(
0)
1*
1+
0,
1-
1.
0/
10
11
12
03
04
15
06
07
09
0:
b1011 ;
b0101 <
b111 =
b0000 >
b0000 ?
b0110 @
b1011 C
0H
0I
0J
0L
0N
0O
1R
1S
1V
1W
#122
0#
0$
0%
0&
0'
1)
0+
0-
0.
1/
01
02
16
b0000 ;
b1011 <
b101 =
b1011 >
b1011 ?
b0101 @
0A
0B
b0101 C
0D
1F
0G
1H
0K
0M
1N
1Q
0R
0S
1T
0V
0W
#123
1%
00
12
13
18
19
b0100 ;
b0110 <
b110 =
b0000 >
b1010 ?
b1110 @
b1010 C
0E
0F
1J
1K
1L
0N
0P
0Q
1R
0T
1V
#124
1$
0%
1'
1(
0)
0*
1,
10
02
03
05
17
09
b0011 ;
b1010 <
b001 =
b1001 >
b1101 ?
b1001 @
b0110 C
1D
1F
1G
1I
0J
0K
0L
1N
1Q
1S
1T
0V
#125
1#
1&
0'
0(
1*
1+
12
15
07
08
b0001 ;
b1011 <
b100 =
b1011 >
b1100 ?
b0110 @
b0101 C
1E
0F
0G
0I
1P
0Q
0R
0S
#126
0#
0$
1%
0&
1(
1)
0+
0,
00
13
05
06
19
1:
b1110 ;
b1100 <
b000 =
b1010 >
b1010 ?
b0010 @
1A
1B
b0100 C
0D
0E
1G
0H
1J
1K
1L
1M
1O
0P
1U
#127
1#
1$
1&
0)
1+
1-
1.
03
b1101 ;
b1011 <
b110 =
b0001 >
b1000 ?
b0101 C
1D
1E
0G
1H
0K
0L
1P
#128
0#
0$
0%
0&
0(
0*
0+
1,
0.
0/
02
15
16
18
0:
b0001 ;
b0100 <
b001 =
b1101 >
b0101 ?
b1101 @
0A
0B
b1100 C
0E
1F
0H
0J
1K
0M
0N
0O
0P
1Q
0U
1V
#129
1)
1*
1/
10
12
13
b0111 ;
b1000 <
b1111 >
b1111 ?
b1111 @
b1000 C
1G
1J
0K
1N
0T
#130
1#
1$
1%
1&
1'
0*
0,
1.
00
02
14
06
b0011 ;
b0111 <
b000 =
b1010 >
b1010 ?
b1100 @
b1001 C
1E
0F
1H
1I
0J
1K
0N
1P
0Q
#131
0#
0&
1(
0)
0/
10
11
03
04
09
b1111 ;
b0010 <
b110 =
b0001 >
b0001 ?
b1101 @
1A
1B
b1110 C
0E
1F
1J
0K
1M
0P
1Q
1R
1S
1T
1U
1W
#132
1/
00
01
08
19
1:
b0110 ;
b001 =
b0100 >
b1000 ?
b0100 @
0A
0D
0F
0M
0Q
0W
#133
0$
0'
0(
1)
1*
0-
0.
12
13
16
18
0:
b0100 ;
b0110 <
b111 =
b0000 >
b1010 ?
b1110 @
0B
b1010 C
0G
0I
1K
1L
0S
0T
0U
#134
0%
1'
1(
10
02
03
05
17
09
b0010 ;
b1001 <
b010 =
b1101 >
b1011 ?
b1001 @
b0111 C
1E
1F
1G
0H
0J
0K
0L
1N
1P
1Q
1S
1T
0V
#135
1#
1$
1&
0*
1,
13
14
b0011 ;
b1011 <
b101 =
b1000 >
b1110 ?
b1000 @
b0101 C
1D
0F
1H
1I
0Q
0R
0S
#136
0#
0$
0&
0'
0(
0)
0,
12
04
15
07
08
b0000 ;
b1001 <
b001 =
b0111 >
b1001 ?
b0111 @
b0111 C
0D
1F
0G
0H
0I
1Q
1R
