lab1/waveform.vcd
$version Generated by VerilatedVcd $end
$timescale 1s $end

 $scope module TOP $end
  $var wire  1 ] clk $end
  $var wire 32 _ r[0] [31:0] $end
  $var wire 32 i r[10] [31:0] $end
  $var wire 32 j r[11] [31:0] $end
  $var wire 32 k r[12] [31:0] $end
  $var wire 32 l r[13] [31:0] $end
  $var wire 32 m r[14] [31:0] $end
  $var wire 32 n r[15] [31:0] $end
  $var wire 32 o r[16] [31:0] $end
  $var wire 32 p r[17] [31:0] $end
  $var wire 32 q r[18] [31:0] $end
  $var wire 32 r r[19] [31:0] $end
  $var wire 32 ` r[1] [31:0] $end
  $var wire 32 s r[20] [31:0] $end
  $var wire 32 t r[21] [31:0] $end
  $var wire 32 u r[22] [31:0] $end
  $var wire 32 v r[23] [31:0] $end
  $var wire 32 w r[24] [31:0] $end
  $var wire 32 x r[25] [31:0] $end
  $var wire 32 y r[26] [31:0] $end
  $var wire 32 z r[27] [31:0] $end
  $var wire 32 { r[28] [31:0] $end
  $var wire 32 | r[29] [31:0] $end
  $var wire 32 a r[2] [31:0] $end
  $var wire 32 } r[30] [31:0] $end
  $var wire 32 ~ r[31] [31:0] $end
  $var wire 32 b r[3] [31:0] $end
  $var wire 32 c r[4] [31:0] $end
  $var wire 32 d r[5] [31:0] $end
  $var wire 32 e r[6] [31:0] $end
  $var wire 32 f r[7] [31:0] $end
  $var wire 32 g r[8] [31:0] $end
  $var wire 32 h r[9] [31:0] $end
  $var wire  1 ^ start $end
  $scope module SingleCycleCPU $end
   $var wire  4 N ALUCtl [3:0] $end
   $var wire  2 O ALUOp [1:0] $end
   $var wire 32 X ALUOut [31:0] $end
   $var wire  1 U ALUSrc $end
   $var wire 32 # PC [31:0] $end
   $var wire  1 $! PCSel $end
   $var wire 32 $ PCplus4 [31:0] $end
   $var wire  1 P branch $end
   $var wire 32 ( branchAddr [31:0] $end
   $var wire  1 ] clk $end
   $var wire 32 Y dataR1 [31:0] $end
   $var wire 32 Z dataR2 [31:0] $end
   $var wire 32 & imm [31:0] $end
   $var wire 32 % inst [31:0] $end
   $var wire 32 "! memDataOut [31:0] $end
   $var wire  1 Q memRead $end
   $var wire  1 S memWrite $end
   $var wire  1 R memtoReg $end
   $var wire 32 [ muxALU [31:0] $end
   $var wire 32 !! muxPC [31:0] $end
   $var wire 32 _ r[0] [31:0] $end
   $var wire 32 i r[10] [31:0] $end
   $var wire 32 j r[11] [31:0] $end
   $var wire 32 k r[12] [31:0] $end
   $var wire 32 l r[13] [31:0] $end
   $var wire 32 m r[14] [31:0] $end
   $var wire 32 n r[15] [31:0] $end
   $var wire 32 o r[16] [31:0] $end
   $var wire 32 p r[17] [31:0] $end
   $var wire 32 q r[18] [31:0] $end
   $var wire 32 r r[19] [31:0] $end
   $var wire 32 ` r[1] [31:0] $end
   $var wire 32 s r[20] [31:0] $end
   $var wire 32 t r[21] [31:0] $end
   $var wire 32 u r[22] [31:0] $end
   $var wire 32 v r[23] [31:0] $end
   $var wire 32 w r[24] [31:0] $end
   $var wire 32 x r[25] [31:0] $end
   $var wire 32 y r[26] [31:0] $end
   $var wire 32 z r[27] [31:0] $end
   $var wire 32 { r[28] [31:0] $end
   $var wire 32 | r[29] [31:0] $end
   $var wire 32 a r[2] [31:0] $end
   $var wire 32 } r[30] [31:0] $end
   $var wire 32 ~ r[31] [31:0] $end
   $var wire 32 b r[3] [31:0] $end
   $var wire 32 c r[4] [31:0] $end
   $var wire 32 d r[5] [31:0] $end
   $var wire 32 e r[6] [31:0] $end
   $var wire 32 f r[7] [31:0] $end
   $var wire 32 g r[8] [31:0] $end
   $var wire 32 h r[9] [31:0] $end
   $var wire  1 T regWrite $end
   $var wire 32 ' shiftimm [31:0] $end
   $var wire  1 ^ start $end
   $var wire 32 #! writeData [31:0] $end
   $var wire  1 \ zero $end
   $scope module m_ALU $end
    $var wire 32 Y A [31:0] $end
    $var wire 32 X ALUOut [31:0] $end
    $var wire  4 N ALUctl [3:0] $end
    $var wire 32 [ B [31:0] $end
    $var wire  1 \ zero $end
   $upscope $end
   $scope module m_ALUCtrl $end
    $var wire  4 N ALUCtl [3:0] $end
    $var wire  2 O ALUOp [1:0] $end
    $var wire  3 * funct3 [2:0] $end
    $var wire  1 ) funct7 $end
   $upscope $end
   $scope module m_Adder_addr $end
    $var wire 32 # a [31:0] $end
    $var wire 32 ' b [31:0] $end
    $var wire 32 ( sum [31:0] $end
   $upscope $end
   $scope module m_Control $end
    $var wire  2 O ALUOp [1:0] $end
    $var wire  1 U ALUSrc $end
    $var wire  1 P branch $end
    $var wire  8 V ctrl [7:0] $end
    $var wire  1 Q memRead $end
    $var wire  1 S memWrite $end
    $var wire  1 R memtoReg $end
    $var wire  7 + opcode [6:0] $end
    $var wire  1 T regWrite $end
   $upscope $end
   $scope module m_DataMemory $end
    $var wire 32 X address [31:0] $end
    $var wire  1 ] clk $end
    $var wire  1 Q memRead $end
    $var wire  1 S memWrite $end
    $var wire 32 "! readData [31:0] $end
    $var wire  1 ^ rst $end
    $var wire 32 Z writeData [31:0] $end
   $upscope $end
   $scope module m_ImmGen $end
    $var wire 32 & imm [31:0] $end
    $var wire 32 % inst [31:0] $end
    $var wire  7 + opcode [6:0] $end
   $upscope $end
   $scope module m_InstMem $end
    $var wire 32 % inst [31:0] $end
    $var wire 32 # readAddr [31:0] $end
   $upscope $end
   $scope module m_Mux_ALU $end
    $var wire 32 [ out [31:0] $end
    $var wire 32 Z s0 [31:0] $end
    $var wire 32 & s1 [31:0] $end
    $var wire  1 U sel $end
    $var wire 32 %! size [31:0] $end
   $upscope $end
   $scope module m_Mux_PC $end
    $var wire 32 !! out [31:0] $end
    $var wire 32 $ s0 [31:0] $end
    $var wire 32 ( s1 [31:0] $end
    $var wire  1 $! sel $end
    $var wire 32 %! size [31:0] $end
   $upscope $end
   $scope module m_Mux_WriteData $end
    $var wire 32 #! out [31:0] $end
    $var wire 32 "! s0 [31:0] $end
    $var wire 32 X s1 [31:0] $end
    $var wire  1 R sel $end
    $var wire 32 %! size [31:0] $end
   $upscope $end
   $scope module m_PC $end
    $var wire  1 ] clk $end
    $var wire 32 !! pc_i [31:0] $end
    $var wire 32 # pc_o [31:0] $end
    $var wire  1 ^ rst $end
   $upscope $end
   $scope module m_PCadder $end
    $var wire 32 # a [31:0] $end
    $var wire 32 &! b [31:0] $end
    $var wire 32 $ sum [31:0] $end
   $upscope $end
   $scope module m_Register $end
    $var wire  1 ] clk $end
    $var wire 32 Y readData1 [31:0] $end
    $var wire 32 Z readData2 [31:0] $end
    $var wire  5 , readReg1 [4:0] $end
    $var wire  5 - readReg2 [4:0] $end
    $var wire  1 T regWrite $end
    $var wire 32 . regs[0] [31:0] $end
    $var wire 32 8 regs[10] [31:0] $end
    $var wire 32 9 regs[11] [31:0] $end
    $var wire 32 : regs[12] [31:0] $end
    $var wire 32 ; regs[13] [31:0] $end
    $var wire 32 < regs[14] [31:0] $end
    $var wire 32 = regs[15] [31:0] $end
    $var wire 32 > regs[16] [31:0] $end
    $var wire 32 ? regs[17] [31:0] $end
    $var wire 32 @ regs[18] [31:0] $end
    $var wire 32 A regs[19] [31:0] $end
    $var wire 32 / regs[1] [31:0] $end
    $var wire 32 B regs[20] [31:0] $end
    $var wire 32 C regs[21] [31:0] $end
    $var wire 32 D regs[22] [31:0] $end
    $var wire 32 E regs[23] [31:0] $end
    $var wire 32 F regs[24] [31:0] $end
    $var wire 32 G regs[25] [31:0] $end
    $var wire 32 H regs[26] [31:0] $end
    $var wire 32 I regs[27] [31:0] $end
    $var wire 32 J regs[28] [31:0] $end
    $var wire 32 K regs[29] [31:0] $end
    $var wire 32 0 regs[2] [31:0] $end
    $var wire 32 L regs[30] [31:0] $end
    $var wire 32 M regs[31] [31:0] $end
    $var wire 32 1 regs[3] [31:0] $end
    $var wire 32 2 regs[4] [31:0] $end
    $var wire 32 3 regs[5] [31:0] $end
    $var wire 32 4 regs[6] [31:0] $end
    $var wire 32 5 regs[7] [31:0] $end
    $var wire 32 6 regs[8] [31:0] $end
    $var wire 32 7 regs[9] [31:0] $end
    $var wire  1 ^ rst $end
    $var wire 32 #! writeData [31:0] $end
    $var wire  5 W writeReg [4:0] $end
   $upscope $end
   $scope module m_ShiftLeftOne $end
    $var wire 32 & i [31:0] $end
    $var wire 32 ' o [31:0] $end
   $upscope $end
  $upscope $end
 $upscope $end
$enddefinitions $end


#0
b00000000000000000000000000000000 #
b00000000000000000000000000000100 $
b00001010001100000000010000010011 %
b00000000000000000000000010100011 &
b00000000000000000000000101000110 '
b00000000000000000000000101000110 (
0)
b000 *
b0010011 +
b00000 ,
b00011 -
b00000000000000000000000000000000 .
b00000000000000000000000000000000 /
b00000000000000000000000000000000 0
b00000000000000000000000000000000 1
b00000000000000000000000000000000 2
b00000000000000000000000000000000 3
b00000000000000000000000000000000 4
b00000000000000000000000000000000 5
b00000000000000000000000000000000 6
b00000000000000000000000000000000 7
b00000000000000000000000000000000 8
b00000000000000000000000000000000 9
b00000000000000000000000000000000 :
b00000000000000000000000000000000 ;
b00000000000000000000000000000000 <
b00000000000000000000000000000000 =
b00000000000000000000000000000000 >
b00000000000000000000000000000000 ?
b00000000000000000000000000000000 @
b00000000000000000000000000000000 A
b00000000000000000000000000000000 B
b00000000000000000000000000000000 C
b00000000000000000000000000000000 D
b00000000000000000000000000000000 E
b00000000000000000000000000000000 F
b00000000000000000000000000000000 G
b00000000000000000000000000000000 H
b00000000000000000000000000000000 I
b00000000000000000000000000000000 J
b00000000000000000000000000000000 K
b00000000000000000000000000000000 L
b00000000000000000000000000000000 M
b0000 N
b01 O
0P
0Q
1R
0S
1T
1U
b00101101 V
b01000 W
b00000000000000000000000010100011 X
b00000000000000000000000000000000 Y
b00000000000000000000000000000000 Z
b00000000000000000000000010100011 [
1\
0]
1^
b00000000000000000000000000000000 _
b00000000000000000000000000000000 `
b00000000000000000000000000000000 a
b00000000000000000000000000000000 b
b00000000000000000000000000000000 c
b00000000000000000000000000000000 d
b00000000000000000000000000000000 e
b00000000000000000000000000000000 f
b00000000000000000000000000000000 g
b00000000000000000000000000000000 h
b00000000000000000000000000000000 i
b00000000000000000000000000000000 j
b00000000000000000000000000000000 k
b00000000000000000000000000000000 l
b00000000000000000000000000000000 m
b00000000000000000000000000000000 n
b00000000000000000000000000000000 o
b00000000000000000000000000000000 p
b00000000000000000000000000000000 q
b00000000000000000000000000000000 r
b00000000000000000000000000000000 s
b00000000000000000000000000000000 t
b00000000000000000000000000000000 u
b00000000000000000000000000000000 v
b00000000000000000000000000000000 w
b00000000000000000000000000000000 x
b00000000000000000000000000000000 y
b00000000000000000000000000000000 z
b00000000000000000000000000000000 {
b00000000000000000000000000000000 |
b00000000000000000000000000000000 }
b00000000000000000000000000000000 ~
b00000000000000000000000000000100 !!
b00000000000000000000000000000000 "!
b00000000000000000000000010100011 #!
0$!
b00000000000000000000000000100000 %!
b00000000000000000000000000000100 &!
#1
b00000000000000000000000010000000 0
1]
0^
b00000000000000000000000010000000 a
#2
b00000000000000000000000010100011 6
0]
1^
b00000000000000000000000010100011 g
#3
b00000000000000000000000000000100 #
b00000000000000000000000000001000 $
b11111111110000010000000100010011 %
b11111111111111111111111111111100 &
b11111111111111111111111111111000 '
b11111111111111111111111111111100 (
1)
b00010 ,
b11100 -
b00010 W
b00000000000000000000000001111100 X
b00000000000000000000000010000000 Y
b11111111111111111111111111111100 [
1]
b00000000000000000000000000001000 !!
b00000000000000000000000001111100 #!
#4
b00000000000000000000000001111100 0
b00000000000000000000000001111000 X
b00000000000000000000000001111100 Y
0]
b00000000000000000000000001111100 a
b00000000000000000000000001111000 #!
#5
b00000000000000000000000000001000 #
b00000000000000000000000000001100 $
b00000000100000010010000000100011 %
b00000000000000000000000000000000 &
b00000000000000000000000000000000 '
b00000000000000000000000000001000 (
0)
b010 *
b0100011 +
b01000 -
b10 O
0R
1S
0T
b00011010 V
b00000 W
b00000000000000000000000001111100 X
b00000000000000000000000010100011 Z
b00000000000000000000000000000000 [
1]
b00000000000000000000000000001100 !!
b00000000000000000000000000000000 #!
#6
0]
#7
b00000000000000000000000000001100 #
b00000000000000000000000000010000 $
b00000000000000000000010000110011 %
b00000000000000000000000000001100 (
b000 *
b0110011 +
b00000 ,
b00000 -
b00 O
1R
0S
1T
0U
b00100100 V
b01000 W
b00000000000000000000000000000000 X
b00000000000000000000000000000000 Y
b00000000000000000000000000000000 Z
0\
1]
b00000000000000000000000000010000 !!
#8
b00000000000000000000000000000000 6
0]
b00000000000000000000000000000000 g
#9
b00000000000000000000000000010000 #
b00000000000000000000000000010100 $
b00000000000000000000001010010011 %
b00000000000000000000000000010000 (
b0010011 +
b01 O
1U
b00101101 V
b00101 W
1]
b00000000000000000000000000010100 !!
#10
0]
#11
b00000000000000000000000000010100 #
b00000000000000000000000000011000 $
b00000000011100101010001100010011 %
b00000000000000000000000000000111 &
b00000000000000000000000000001110 '
b00000000000000000000000000100010 (
b010 *
b00101 ,
b00111 -
b0100 N
b00110 W
b00000000000000000000000000000001 X
b00000000000000000000000000000111 [
1\
1]
b00000000000000000000000000011000 !!
b00000000000000000000000000000001 #!
#12
b00000000000000000000000000000001 4
0]
b00000000000000000000000000000001 e
#13
b00000000000000000000000000011000 #
b00000000000000000000000000011100 $
b00000000000000110000011001100011 %
b00000000000000000000000000000110 &
b00000000000000000000000000001100 '
b00000000000000000000000000100100 (
b000 *
b1100011 +
b00110 ,
b00000 -
b0101 N
b11 O
1P
1Q
0R
0T
0U
b11000011 V
b01100 W
b00000000000000000000000000000000 X
b00000000000000000000000000000001 Y
b00000000000000000000000000000000 [
0\
1]
b00000000000000000000000000011100 !!
b00000000000000000000000000000000 #!
#14
0]
#15
b00000000000000000000000000011100 #
b00000000000000000000000000100000 $
b00000000000100101000001010010011 %
b00000000000000000000000000000001 &
b00000000000000000000000000000010 '
b00000000000000000000000000011110 (
b0010011 +
b00101 ,
b00001 -
b0000 N
b01 O
0P
0Q
1R
1T
1U
b00101101 V
b00101 W
b00000000000000000000000000000001 X
b00000000000000000000000000000000 Y
b00000000000000000000000000000001 [
1\
1]
b00000000000000000000000000100000 !!
b00000000000000000000000000000001 #!
#16
b00000000000000000000000000000001 3
b00000000000000000000000000000010 X
b00000000000000000000000000000001 Y
0]
b00000000000000000000000000000001 d
b00000000000000000000000000000010 #!
#17
b00000000000000000000000000100000 #
b00000000000000000000000000100100 $
b11111110000000000000101011100011 %
b11111111111111111111111111111010 &
b11111111111111111111111111110100 '
b00000000000000000000000000010100 (
1)
b1100011 +
b00000 ,
b00000 -
b0101 N
b11 O
1P
1Q
0R
0T
0U
b11000011 V
b10101 W
b00000000000000000000000000000001 X
b00000000000000000000000000000000 Y
b00000000000000000000000000000000 [
1]
b00000000000000000000000000010100 !!
b00000000000000000000000000000000 #!
1$!
#18
0]
#19
b00000000000000000000000000010100 #
b00000000000000000000000000011000 $
b00000000011100101010001100010011 %
b00000000000000000000000000000111 &
b00000000000000000000000000001110 '
b00000000000000000000000000100010 (
0)
b010 *
b0010011 +
b00101 ,
b00111 -
b0100 N
b01 O
0P
0Q
1R
1T
1U
b00101101 V
b00110 W
b00000000000000000000000000000001 Y
b00000000000000000000000000000111 [
1]
b00000000000000000000000000011000 !!
b00000000000000000000000000000001 #!
0$!
#20
0]
#21
b00000000000000000000000000011000 #
b00000000000000000000000000011100 $
b00000000000000110000011001100011 %
b00000000000000000000000000000110 &
b00000000000000000000000000001100 '
b00000000000000000000000000100100 (
b000 *
b1100011 +
b00110 ,
b00000 -
b0101 N
b11 O
1P
1Q
0R
0T
0U
b11000011 V
b01100 W
b00000000000000000000000000000000 X
b00000000000000000000000000000000 [
0\
1]
b00000000000000000000000000011100 !!
b00000000000000000000000000000000 #!
#22
0]
#23
b00000000000000000000000000011100 #
b00000000000000000000000000100000 $
b00000000000100101000001010010011 %
b00000000000000000000000000000001 &
b00000000000000000000000000000010 '
b00000000000000000000000000011110 (
b0010011 +
b00101 ,
b00001 -
b0000 N
b01 O
0P
0Q
1R
1T
1U
b00101101 V
b00101 W
b00000000000000000000000000000010 X
b00000000000000000000000000000001 [
1\
1]
b00000000000000000000000000100000 !!
b00000000000000000000000000000010 #!
#24
b00000000000000000000000000000010 3
b00000000000000000000000000000011 X
b00000000000000000000000000000010 Y
0]
b00000000000000000000000000000010 d
b00000000000000000000000000000011 #!
#25
b00000000000000000000000000100000 #
b00000000000000000000000000100100 $
b11111110000000000000101011100011 %
b11111111111111111111111111111010 &
b11111111111111111111111111110100 '
b00000000000000000000000000010100 (
1)
b1100011 +
b00000 ,
b00000 -
b0101 N
b11 O
1P
1Q
0R
0T
0U
b11000011 V
b10101 W
b00000000000000000000000000000001 X
b00000000000000000000000000000000 Y
b00000000000000000000000000000000 [
1]
b00000000000000000000000000010100 !!
b00000000000000000000000000000000 #!
1$!
#26
0]
#27
b00000000000000000000000000010100 #
b00000000000000000000000000011000 $
b00000000011100101010001100010011 %
b00000000000000000000000000000111 &
b00000000000000000000000000001110 '
b00000000000000000000000000100010 (
0)
b010 *
b0010011 +
b00101 ,
b00111 -
b0100 N
b01 O
0P
0Q
1R
1T
1U
b00101101 V
b00110 W
b00000000000000000000000000000010 Y
b00000000000000000000000000000111 [
1]
b00000000000000000000000000011000 !!
b00000000000000000000000000000001 #!
0$!
#28
0]
#29
b00000000000000000000000000011000 #
b00000000000000000000000000011100 $
b00000000000000110000011001100011 %
b00000000000000000000000000000110 &
b00000000000000000000000000001100 '
b00000000000000000000000000100100 (
b000 *
b1100011 +
b00110 ,
b00000 -
b0101 N
b11 O
1P
1Q
0R
0T
0U
b11000011 V
b01100 W
b00000000000000000000000000000000 X
b00000000000000000000000000000001 Y
b00000000000000000000000000000000 [
0\
1]
b00000000000000000000000000011100 !!
b00000000000000000000000000000000 #!
#30
0]
#31
b00000000000000000000000000011100 #
b00000000000000000000000000100000 $
b00000000000100101000001010010011 %
b00000000000000000000000000000001 &
b00000000000000000000000000000010 '
b00000000000000000000000000011110 (
b0010011 +
b00101 ,
b00001 -
b0000 N
b01 O
0P
0Q
1R
1T
1U
b00101101 V
b00101 W
b00000000000000000000000000000011 X
b00000000000000000000000000000010 Y
b00000000000000000000000000000001 [
1\
1]
b00000000000000000000000000100000 !!
b00000000000000000000000000000011 #!
#32
b00000000000000000000000000000011 3
b00000000000000000000000000000100 X
b00000000000000000000000000000011 Y
0]
b00000000000000000000000000000011 d
b00000000000000000000000000000100 #!
#33
b00000000000000000000000000100000 #
b00000000000000000000000000100100 $
b11111110000000000000101011100011 %
b11111111111111111111111111111010 &
b11111111111111111111111111110100 '
b00000000000000000000000000010100 (
1)
b1100011 +
b00000 ,
b00000 -
b0101 N
b11 O
1P
1Q
0R
0T
0U
b11000011 V
b10101 W
b00000000000000000000000000000001 X
b00000000000000000000000000000000 Y
b00000000000000000000000000000000 [
1]
b00000000000000000000000000010100 !!
b00000000000000000000000000000000 #!
1$!
#34
0]
#35
b00000000000000000000000000010100 #
b00000000000000000000000000011000 $
b00000000011100101010001100010011 %
b00000000000000000000000000000111 &
b00000000000000000000000000001110 '
b00000000000000000000000000100010 (
0)
b010 *
b0010011 +
b00101 ,
b00111 -
b0100 N
b01 O
0P
0Q
1R
1T
1U
b00101101 V
b00110 W
b00000000000000000000000000000011 Y
b00000000000000000000000000000111 [
1]
b00000000000000000000000000011000 !!
b00000000000000000000000000000001 #!
0$!
#36
0]
#37
b00000000000000000000000000011000 #
b00000000000000000000000000011100 $
b00000000000000110000011001100011 %
b00000000000000000000000000000110 &
b00000000000000000000000000001100 '
b00000000000000000000000000100100 (
b000 *
b1100011 +
b00110 ,
b00000 -
b0101 N
b11 O
1P
1Q
0R
0T
0U
b11000011 V
b01100 W
b00000000000000000000000000000000 X
b00000000000000000000000000000001 Y
b00000000000000000000000000000000 [
0\
1]
b00000000000000000000000000011100 !!
b00000000000000000000000000000000 #!
#38
0]
#39
b00000000000000000000000000011100 #
b00000000000000000000000000100000 $
b00000000000100101000001010010011 %
b00000000000000000000000000000001 &
b00000000000000000000000000000010 '
b00000000000000000000000000011110 (
b0010011 +
b00101 ,
b00001 -
b0000 N
b01 O
0P
0Q
1R
1T
1U
b00101101 V
b00101 W
b00000000000000000000000000000100 X
b00000000000000000000000000000011 Y
b00000000000000000000000000000001 [
1\
1]
b00000000000000000000000000100000 !!
b00000000000000000000000000000100 #!
#40
b00000000000000000000000000000100 3
b00000000000000000000000000000101 X
b00000000000000000000000000000100 Y
0]
b00000000000000000000000000000100 d
b00000000000000000000000000000101 #!
#41
b00000000000000000000000000100000 #
b00000000000000000000000000100100 $
b11111110000000000000101011100011 %
b11111111111111111111111111111010 &
b11111111111111111111111111110100 '
b00000000000000000000000000010100 (
1)
b1100011 +
b00000 ,
b00000 -
b0101 N
b11 O
1P
1Q
0R
0T
0U
b11000011 V
b10101 W
b00000000000000000000000000000001 X
b00000000000000000000000000000000 Y
b00000000000000000000000000000000 [
1]
b00000000000000000000000000010100 !!
b00000000000000000000000000000000 #!
1$!
#42
0]
#43
b00000000000000000000000000010100 #
b00000000000000000000000000011000 $
b00000000011100101010001100010011 %
b00000000000000000000000000000111 &
b00000000000000000000000000001110 '
b00000000000000000000000000100010 (
0)
b010 *
b0010011 +
b00101 ,
b00111 -
b0100 N
b01 O
0P
0Q
1R
1T
1U
b00101101 V
b00110 W
b00000000000000000000000000000100 Y
b00000000000000000000000000000111 [
1]
b00000000000000000000000000011000 !!
b00000000000000000000000000000001 #!
0$!
#44
0]
#45
b00000000000000000000000000011000 #
b00000000000000000000000000011100 $
b00000000000000110000011001100011 %
b00000000000000000000000000000110 &
b00000000000000000000000000001100 '
b00000000000000000000000000100100 (
b000 *
b1100011 +
b00110 ,
b00000 -
b0101 N
b11 O
1P
1Q
0R
0T
0U
b11000011 V
b01100 W
b00000000000000000000000000000000 X
b00000000000000000000000000000001 Y
b00000000000000000000000000000000 [
0\
1]
b00000000000000000000000000011100 !!
b00000000000000000000000000000000 #!
#46
0]
#47
b00000000000000000000000000011100 #
b00000000000000000000000000100000 $
b00000000000100101000001010010011 %
b00000000000000000000000000000001 &
b00000000000000000000000000000010 '
b00000000000000000000000000011110 (
b0010011 +
b00101 ,
b00001 -
b0000 N
b01 O
0P
0Q
1R
1T
1U
b00101101 V
b00101 W
b00000000000000000000000000000101 X
b00000000000000000000000000000100 Y
b00000000000000000000000000000001 [
1\
1]
b00000000000000000000000000100000 !!
b00000000000000000000000000000101 #!
#48
b00000000000000000000000000000101 3
b00000000000000000000000000000110 X
b00000000000000000000000000000101 Y
0]
b00000000000000000000000000000101 d
b00000000000000000000000000000110 #!
#49
b00000000000000000000000000100000 #
b00000000000000000000000000100100 $
b11111110000000000000101011100011 %
b11111111111111111111111111111010 &
b11111111111111111111111111110100 '
b00000000000000000000000000010100 (
1)
b1100011 +
b00000 ,
b00000 -
b0101 N
b11 O
1P
1Q
0R
0T
0U
b11000011 V
b10101 W
b00000000000000000000000000000001 X
b00000000000000000000000000000000 Y
b00000000000000000000000000000000 [
1]
b00000000000000000000000000010100 !!
b00000000000000000000000000000000 #!
1$!
#50
0]
#51
b00000000000000000000000000010100 #
b00000000000000000000000000011000 $
b00000000011100101010001100010011 %
b00000000000000000000000000000111 &
b00000000000000000000000000001110 '
b00000000000000000000000000100010 (
0)
b010 *
b0010011 +
b00101 ,
b00111 -
b0100 N
b01 O
0P
0Q
1R
1T
1U
b00101101 V
b00110 W
b00000000000000000000000000000101 Y
b00000000000000000000000000000111 [
1]
b00000000000000000000000000011000 !!
b00000000000000000000000000000001 #!
0$!
#52
0]
#53
b00000000000000000000000000011000 #
b00000000000000000000000000011100 $
b00000000000000110000011001100011 %
b00000000000000000000000000000110 &
b00000000000000000000000000001100 '
b00000000000000000000000000100100 (
b000 *
b1100011 +
b00110 ,
b00000 -
b0101 N
b11 O
1P
1Q
0R
0T
0U
b11000011 V
b01100 W
b00000000000000000000000000000000 X
b00000000000000000000000000000001 Y
b00000000000000000000000000000000 [
0\
1]
b00000000000000000000000000011100 !!
b00000000000000000000000000000000 #!
#54
0]
#55
b00000000000000000000000000011100 #
b00000000000000000000000000100000 $
b00000000000100101000001010010011 %
b00000000000000000000000000000001 &
b00000000000000000000000000000010 '
b00000000000000000000000000011110 (
b0010011 +
b00101 ,
b00001 -
b0000 N
b01 O
0P
0Q
1R
1T
1U
b00101101 V
b00101 W
b00000000000000000000000000000110 X
b00000000000000000000000000000101 Y
b00000000000000000000000000000001 [
1\
1]
b00000000000000000000000000100000 !!
b00000000000000000000000000000110 #!
#56
b00000000000000000000000000000110 3
b00000000000000000000000000000111 X
b00000000000000000000000000000110 Y
0]
b00000000000000000000000000000110 d
b00000000000000000000000000000111 #!
#57
b00000000000000000000000000100000 #
b00000000000000000000000000100100 $
b11111110000000000000101011100011 %
b11111111111111111111111111111010 &
b11111111111111111111111111110100 '
b00000000000000000000000000010100 (
1)
b1100011 +
b00000 ,
b00000 -
b0101 N
b11 O
1P
1Q
0R
0T
0U
b11000011 V
b10101 W
b00000000000000000000000000000001 X
b00000000000000000000000000000000 Y
b00000000000000000000000000000000 [
1]
b00000000000000000000000000010100 !!
b00000000000000000000000000000000 #!
1$!
#58
0]
#59
b00000000000000000000000000010100 #
b00000000000000000000000000011000 $
b00000000011100101010001100010011 %
b00000000000000000000000000000111 &
b00000000000000000000000000001110 '
b00000000000000000000000000100010 (
0)
b010 *
b0010011 +
b00101 ,
b00111 -
b0100 N
b01 O
0P
0Q
1R
1T
1U
b00101101 V
b00110 W
b00000000000000000000000000000110 Y
b00000000000000000000000000000111 [
1]
b00000000000000000000000000011000 !!
b00000000000000000000000000000001 #!
0$!
#60
0]
#61
b00000000000000000000000000011000 #
b00000000000000000000000000011100 $
b00000000000000110000011001100011 %
b00000000000000000000000000000110 &
b00000000000000000000000000001100 '
b00000000000000000000000000100100 (
b000 *
b1100011 +
b00110 ,
b00000 -
b0101 N
b11 O
1P
1Q
0R
0T
0U
b11000011 V
b01100 W
b00000000000000000000000000000000 X
b00000000000000000000000000000001 Y
b00000000000000000000000000000000 [
0\
1]
b00000000000000000000000000011100 !!
b00000000000000000000000000000000 #!
#62
0]
#63
b00000000000000000000000000011100 #
b00000000000000000000000000100000 $
b00000000000100101000001010010011 %
b00000000000000000000000000000001 &
b00000000000000000000000000000010 '
b00000000000000000000000000011110 (
b0010011 +
b00101 ,
b00001 -
b0000 N
b01 O
0P
0Q
1R
1T
1U
b00101101 V
b00101 W
b00000000000000000000000000000111 X
b00000000000000000000000000000110 Y
b00000000000000000000000000000001 [
1\
1]
b00000000000000000000000000100000 !!
b00000000000000000000000000000111 #!
#64
b00000000000000000000000000000111 3
b00000000000000000000000000001000 X
b00000000000000000000000000000111 Y
0]
b00000000000000000000000000000111 d
b00000000000000000000000000001000 #!
#65
b00000000000000000000000000100000 #
b00000000000000000000000000100100 $
b11111110000000000000101011100011 %
b11111111111111111111111111111010 &
b11111111111111111111111111110100 '
b00000000000000000000000000010100 (
1)
b1100011 +
b00000 ,
b00000 -
b0101 N
b11 O
1P
1Q
0R
0T
0U
b11000011 V
b10101 W
b00000000000000000000000000000001 X
b00000000000000000000000000000000 Y
b00000000000000000000000000000000 [
1]
b00000000000000000000000000010100 !!
b00000000000000000000000000000000 #!
1$!
#66
0]
#67
b00000000000000000000000000010100 #
b00000000000000000000000000011000 $
b00000000011100101010001100010011 %
b00000000000000000000000000000111 &
b00000000000000000000000000001110 '
b00000000000000000000000000100010 (
0)
b010 *
b0010011 +
b00101 ,
b00111 -
b0100 N
b01 O
0P
0Q
1R
1T
1U
b00101101 V
b00110 W
b00000000000000000000000000000000 X
b00000000000000000000000000000111 Y
b00000000000000000000000000000111 [
0\
1]
b00000000000000000000000000011000 !!
0$!
#68
b00000000000000000000000000000000 4
0]
b00000000000000000000000000000000 e
#69
b00000000000000000000000000011000 #
b00000000000000000000000000011100 $
b00000000000000110000011001100011 %
b00000000000000000000000000000110 &
b00000000000000000000000000001100 '
b00000000000000000000000000100100 (
b000 *
b1100011 +
b00110 ,
b00000 -
b0101 N
b11 O
1P
1Q
0R
0T
0U
b11000011 V
b01100 W
b00000000000000000000000000000001 X
b00000000000000000000000000000000 Y
b00000000000000000000000000000000 [
1\
1]
b00000000000000000000000000100100 !!
1$!
#70
0]
#71
b00000000000000000000000000100100 #
b00000000000000000000000000101000 $
b00000000101000110110001100010011 %
b00000000000000000000000000001010 &
b00000000000000000000000000010100 '
b00000000000000000000000000111000 (
b110 *
b0010011 +
b01010 -
b0011 N
b01 O
0P
0Q
1R
1T
1U
b00101101 V
b00110 W
b00000000000000000000000000001010 X
b00000000000000000000000000001010 [
1]
b00000000000000000000000000101000 !!
b00000000000000000000000000001010 #!
0$!
#72
b00000000000000000000000000001010 4
b00000000000000000000000000001010 Y
0]
b00000000000000000000000000001010 e
#73
b00000000000000000000000000101000 #
b00000000000000000000000000101100 $
b00000000000000010010010000000011 %
b00000000000000000000000000000000 &
b00000000000000000000000000000000 '
b00000000000000000000000000101000 (
b010 *
b0000011 +
b00010 ,
b00000 -
b0000 N
b10 O
1Q
0R
b01001110 V
b01000 W
b00000000000000000000000001111100 X
b00000000000000000000000001111100 Y
b00000000000000000000000000000000 [
1]
b00000000000000000000000000101100 !!
b00000000000000000000000010100011 "!
b00000000000000000000000010100011 #!
#74
b00000000000000000000000010100011 6
0]
b00000000000000000000000010100011 g
