lab4/waveform.vcd
$version Generated by VerilatedVcd $end
$timescale 1s $end

 $scope module TOP $end
  $var wire  1 )! clk $end
  $var wire 32 +! r[0] [31:0] $end
  $var wire 32 5! r[10] [31:0] $end
  $var wire 32 6! r[11] [31:0] $end
  $var wire 32 7! r[12] [31:0] $end
  $var wire 32 8! r[13] [31:0] $end
  $var wire 32 9! r[14] [31:0] $end
  $var wire 32 :! r[15] [31:0] $end
  $var wire 32 ;! r[16] [31:0] $end
  $var wire 32 <! r[17] [31:0] $end
  $var wire 32 =! r[18] [31:0] $end
  $var wire 32 >! r[19] [31:0] $end
  $var wire 32 ,! r[1] [31:0] $end
  $var wire 32 ?! r[20] [31:0] $end
  $var wire 32 @! r[21] [31:0] $end
  $var wire 32 A! r[22] [31:0] $end
  $var wire 32 B! r[23] [31:0] $end
  $var wire 32 C! r[24] [31:0] $end
  $var wire 32 D! r[25] [31:0] $end
  $var wire 32 E! r[26] [31:0] $end
  $var wire 32 F! r[27] [31:0] $end
  $var wire 32 G! r[28] [31:0] $end
  $var wire 32 H! r[29] [31:0] $end
  $var wire 32 -! r[2] [31:0] $end
  $var wire 32 I! r[30] [31:0] $end
  $var wire 32 J! r[31] [31:0] $end
  $var wire 32 .! r[3] [31:0] $end
  $var wire 32 /! r[4] [31:0] $end
  $var wire 32 0! r[5] [31:0] $end
  $var wire 32 1! r[6] [31:0] $end
  $var wire 32 2! r[7] [31:0] $end
  $var wire 32 3! r[8] [31:0] $end
  $var wire 32 4! r[9] [31:0] $end
  $var wire  1 *! start $end
  $scope module SingleCycleCPU $end
   $var wire  4 9 ALUCtl [3:0] $end
   $var wire 32 y ALUMEM [31:0] $end
   $var wire  3 { ALUOp [2:0] $end
   $var wire  3 = ALUOpEX [2:0] $end
   $var wire 32 x ALUOut [31:0] $end
   $var wire  1 "! ALUSrcB $end
   $var wire  1 B ALUSrcBEX $end
   $var wire 32 8 ALUWB [31:0] $end
   $var wire 32 u PC [31:0] $end
   $var wire 32 . PCEX [31:0] $end
   $var wire 32 , PCID [31:0] $end
   $var wire 32 2 PCMEM [31:0] $end
   $var wire  1 > PCSel $end
   $var wire 32 v PCplus4 [31:0] $end
   $var wire 32 5 PCplus4MEM [31:0] $end
   $var wire 32 6 PCplus4WB [31:0] $end
   $var wire  1 $! addrSrcA $end
   $var wire  1 C addrSrcAEX $end
   $var wire  1 %! addrSrcB $end
   $var wire  1 D addrSrcBEX $end
   $var wire  1 | branch $end
   $var wire 32 % branchAddr [31:0] $end
   $var wire 32 4 branchAddrMEM [31:0] $end
   $var wire  1 ? branchEX $end
   $var wire  1 E branchMEM $end
   $var wire  1 )! clk $end
   $var wire 32 & dataR1 [31:0] $end
   $var wire 32 / dataR1EX [31:0] $end
   $var wire 32 ' dataR2 [31:0] $end
   $var wire 32 0 dataR2EX [31:0] $end
   $var wire 32 3 dataR2MEM [31:0] $end
   $var wire  4 M func7n3 [3:0] $end
   $var wire 32 # imm [31:0] $end
   $var wire 32 1 immEX [31:0] $end
   $var wire 32 w inst [31:0] $end
   $var wire  5 J instEX [4:0] $end
   $var wire 32 - instID [31:0] $end
   $var wire  5 K instMEM [4:0] $end
   $var wire  5 L instWB [4:0] $end
   $var wire 32 L! memDataOut [31:0] $end
   $var wire 32 7 memDataWB [31:0] $end
   $var wire  1 } memRead $end
   $var wire  1 &! memReadEX $end
   $var wire  1 '! memReadMEM $end
   $var wire  1 ~ memWrite $end
   $var wire  1 @ memWriteEX $end
   $var wire  1 F memWriteMEM $end
   $var wire  2 z memtoReg [1:0] $end
   $var wire  2 : memtoRegEX [1:0] $end
   $var wire  2 ; memtoRegMEM [1:0] $end
   $var wire  2 < memtoRegWB [1:0] $end
   $var wire 32 ) muxALUB [31:0] $end
   $var wire 32 * muxAddrA [31:0] $end
   $var wire 32 + muxAddrB [31:0] $end
   $var wire 32 K! muxPC [31:0] $end
   $var wire 32 +! r[0] [31:0] $end
   $var wire 32 5! r[10] [31:0] $end
   $var wire 32 6! r[11] [31:0] $end
   $var wire 32 7! r[12] [31:0] $end
   $var wire 32 8! r[13] [31:0] $end
   $var wire 32 9! r[14] [31:0] $end
   $var wire 32 :! r[15] [31:0] $end
   $var wire 32 ;! r[16] [31:0] $end
   $var wire 32 <! r[17] [31:0] $end
   $var wire 32 =! r[18] [31:0] $end
   $var wire 32 >! r[19] [31:0] $end
   $var wire 32 ,! r[1] [31:0] $end
   $var wire 32 ?! r[20] [31:0] $end
   $var wire 32 @! r[21] [31:0] $end
   $var wire 32 A! r[22] [31:0] $end
   $var wire 32 B! r[23] [31:0] $end
   $var wire 32 C! r[24] [31:0] $end
   $var wire 32 D! r[25] [31:0] $end
   $var wire 32 E! r[26] [31:0] $end
   $var wire 32 F! r[27] [31:0] $end
   $var wire 32 G! r[28] [31:0] $end
   $var wire 32 H! r[29] [31:0] $end
   $var wire 32 -! r[2] [31:0] $end
   $var wire 32 I! r[30] [31:0] $end
   $var wire 32 J! r[31] [31:0] $end
   $var wire 32 .! r[3] [31:0] $end
   $var wire 32 /! r[4] [31:0] $end
   $var wire 32 0! r[5] [31:0] $end
   $var wire 32 1! r[6] [31:0] $end
   $var wire 32 2! r[7] [31:0] $end
   $var wire 32 3! r[8] [31:0] $end
   $var wire 32 4! r[9] [31:0] $end
   $var wire  1 !! regWrite $end
   $var wire  1 A regWriteEX $end
   $var wire  1 G regWriteMEM $end
   $var wire  1 I regWriteWB $end
   $var wire 32 $ shiftimm [31:0] $end
   $var wire  1 *! start $end
   $var wire 32 ( writeData [31:0] $end
   $var wire  1 #! zero $end
   $var wire  1 H zeroMEM $end
   $scope module ALUOp_EX $end
    $var wire  1 )! clk $end
    $var wire  3 { data_i [2:0] $end
    $var wire  3 = data_o [2:0] $end
    $var wire  1 *! rst $end
    $var wire 32 M! size [31:0] $end
   $upscope $end
   $scope module ALUSrcB_EX $end
    $var wire  1 )! clk $end
    $var wire  1 "! data_i [0:0] $end
    $var wire  1 B data_o [0:0] $end
    $var wire  1 *! rst $end
    $var wire 32 N! size [31:0] $end
   $upscope $end
   $scope module ALU_MEM $end
    $var wire  1 )! clk $end
    $var wire 32 x data_i [31:0] $end
    $var wire 32 y data_o [31:0] $end
    $var wire  1 *! rst $end
    $var wire 32 O! size [31:0] $end
   $upscope $end
   $scope module ALU_WB $end
    $var wire  1 )! clk $end
    $var wire 32 y data_i [31:0] $end
    $var wire 32 8 data_o [31:0] $end
    $var wire  1 *! rst $end
    $var wire 32 O! size [31:0] $end
   $upscope $end
   $scope module DataMem_WB $end
    $var wire  1 )! clk $end
    $var wire 32 L! data_i [31:0] $end
    $var wire 32 7 data_o [31:0] $end
    $var wire  1 *! rst $end
    $var wire 32 O! size [31:0] $end
   $upscope $end
   $scope module PC_EX $end
    $var wire  1 )! clk $end
    $var wire 32 , data_i [31:0] $end
    $var wire 32 . data_o [31:0] $end
    $var wire  1 *! rst $end
    $var wire 32 O! size [31:0] $end
   $upscope $end
   $scope module PC_ID $end
    $var wire  1 )! clk $end
    $var wire 32 u data_i [31:0] $end
    $var wire 32 , data_o [31:0] $end
    $var wire  1 *! rst $end
    $var wire 32 O! size [31:0] $end
   $upscope $end
   $scope module PC_MEM $end
    $var wire  1 )! clk $end
    $var wire 32 . data_i [31:0] $end
    $var wire 32 2 data_o [31:0] $end
    $var wire  1 *! rst $end
    $var wire 32 O! size [31:0] $end
   $upscope $end
   $scope module PCplus4_WB $end
    $var wire  1 )! clk $end
    $var wire 32 5 data_i [31:0] $end
    $var wire 32 6 data_o [31:0] $end
    $var wire  1 *! rst $end
    $var wire 32 O! size [31:0] $end
   $upscope $end
   $scope module addrSrcA_EX $end
    $var wire  1 )! clk $end
    $var wire  1 $! data_i [0:0] $end
    $var wire  1 C data_o [0:0] $end
    $var wire  1 *! rst $end
    $var wire 32 N! size [31:0] $end
   $upscope $end
   $scope module addrSrcB_EX $end
    $var wire  1 )! clk $end
    $var wire  1 %! data_i [0:0] $end
    $var wire  1 D data_o [0:0] $end
    $var wire  1 *! rst $end
    $var wire 32 N! size [31:0] $end
   $upscope $end
   $scope module branchAddr_MEM $end
    $var wire  1 )! clk $end
    $var wire 32 % data_i [31:0] $end
    $var wire 32 4 data_o [31:0] $end
    $var wire  1 *! rst $end
    $var wire 32 O! size [31:0] $end
   $upscope $end
   $scope module branch_EX $end
    $var wire  1 )! clk $end
    $var wire  1 | data_i [0:0] $end
    $var wire  1 ? data_o [0:0] $end
    $var wire  1 *! rst $end
    $var wire 32 N! size [31:0] $end
   $upscope $end
   $scope module branch_MEM $end
    $var wire  1 )! clk $end
    $var wire  1 ? data_i [0:0] $end
    $var wire  1 E data_o [0:0] $end
    $var wire  1 *! rst $end
    $var wire 32 N! size [31:0] $end
   $upscope $end
   $scope module dtR1_EX $end
    $var wire  1 )! clk $end
    $var wire 32 & data_i [31:0] $end
    $var wire 32 / data_o [31:0] $end
    $var wire  1 *! rst $end
    $var wire 32 O! size [31:0] $end
   $upscope $end
   $scope module dtR2_EX $end
    $var wire  1 )! clk $end
    $var wire 32 ' data_i [31:0] $end
    $var wire 32 0 data_o [31:0] $end
    $var wire  1 *! rst $end
    $var wire 32 O! size [31:0] $end
   $upscope $end
   $scope module dtR2_MEM $end
    $var wire  1 )! clk $end
    $var wire 32 0 data_i [31:0] $end
    $var wire 32 3 data_o [31:0] $end
    $var wire  1 *! rst $end
    $var wire 32 O! size [31:0] $end
   $upscope $end
   $scope module func_EX $end
    $var wire  1 )! clk $end
    $var wire  4 N data_i [3:0] $end
    $var wire  4 M data_o [3:0] $end
    $var wire  1 *! rst $end
    $var wire 32 P! size [31:0] $end
   $upscope $end
   $scope module imm_EX $end
    $var wire  1 )! clk $end
    $var wire 32 # data_i [31:0] $end
    $var wire 32 1 data_o [31:0] $end
    $var wire  1 *! rst $end
    $var wire 32 O! size [31:0] $end
   $upscope $end
   $scope module instWrite_EX $end
    $var wire  1 )! clk $end
    $var wire  5 O data_i [4:0] $end
    $var wire  5 J data_o [4:0] $end
    $var wire  1 *! rst $end
    $var wire 32 Q! size [31:0] $end
   $upscope $end
   $scope module instWrite_MEM $end
    $var wire  1 )! clk $end
    $var wire  5 J data_i [4:0] $end
    $var wire  5 K data_o [4:0] $end
    $var wire  1 *! rst $end
    $var wire 32 Q! size [31:0] $end
   $upscope $end
   $scope module instWrite_WB $end
    $var wire  1 )! clk $end
    $var wire  5 K data_i [4:0] $end
    $var wire  5 L data_o [4:0] $end
    $var wire  1 *! rst $end
    $var wire 32 Q! size [31:0] $end
   $upscope $end
   $scope module inst_ID $end
    $var wire  1 )! clk $end
    $var wire 32 w data_i [31:0] $end
    $var wire 32 - data_o [31:0] $end
    $var wire  1 *! rst $end
    $var wire 32 O! size [31:0] $end
   $upscope $end
   $scope module m_ALU $end
    $var wire 32 / A [31:0] $end
    $var wire 32 x ALUOut [31:0] $end
    $var wire  4 9 ALUctl [3:0] $end
    $var wire 32 ) B [31:0] $end
    $var wire  1 #! zero $end
   $upscope $end
   $scope module m_ALUCtrl $end
    $var wire  4 9 ALUCtl [3:0] $end
    $var wire  3 = ALUOp [2:0] $end
    $var wire  3 Q funct3 [2:0] $end
    $var wire  1 P funct7 $end
   $upscope $end
   $scope module m_Adder_addr $end
    $var wire 32 * a [31:0] $end
    $var wire 32 + b [31:0] $end
    $var wire 32 % sum [31:0] $end
   $upscope $end
   $scope module m_Control $end
    $var wire  3 { ALUOp [2:0] $end
    $var wire  1 "! ALUSrcB $end
    $var wire  1 $! addrSrcA $end
    $var wire  1 %! addrSrcB $end
    $var wire  1 | branch $end
    $var wire 12 (! ctrl [11:0] $end
    $var wire  1 } memRead $end
    $var wire  1 ~ memWrite $end
    $var wire  2 z memtoReg [1:0] $end
    $var wire  7 R opcode [6:0] $end
    $var wire  1 !! regWrite $end
   $upscope $end
   $scope module m_DataMemory $end
    $var wire 32 y address [31:0] $end
    $var wire  1 )! clk $end
    $var wire  1 '! memRead $end
    $var wire  1 F memWrite $end
    $var wire 32 L! readData [31:0] $end
    $var wire  1 *! rst $end
    $var wire 32 3 writeData [31:0] $end
   $upscope $end
   $scope module m_ImmGen $end
    $var wire 32 # imm [31:0] $end
    $var wire 32 - inst [31:0] $end
    $var wire  7 R opcode [6:0] $end
   $upscope $end
   $scope module m_InstMem $end
    $var wire 32 w inst [31:0] $end
    $var wire 32 u readAddr [31:0] $end
   $upscope $end
   $scope module m_Mux_ALU $end
    $var wire 32 ) out [31:0] $end
    $var wire 32 0 s0 [31:0] $end
    $var wire 32 1 s1 [31:0] $end
    $var wire  1 B sel $end
    $var wire 32 O! size [31:0] $end
   $upscope $end
   $scope module m_Mux_AddrA $end
    $var wire 32 * out [31:0] $end
    $var wire 32 . s0 [31:0] $end
    $var wire 32 / s1 [31:0] $end
    $var wire  1 C sel $end
    $var wire 32 O! size [31:0] $end
   $upscope $end
   $scope module m_Mux_AddrB $end
    $var wire 32 + out [31:0] $end
    $var wire 32 $ s0 [31:0] $end
    $var wire 32 1 s1 [31:0] $end
    $var wire  1 D sel $end
    $var wire 32 O! size [31:0] $end
   $upscope $end
   $scope module m_Mux_PC $end
    $var wire 32 K! out [31:0] $end
    $var wire 32 v s0 [31:0] $end
    $var wire 32 4 s1 [31:0] $end
    $var wire  1 > sel $end
    $var wire 32 O! size [31:0] $end
   $upscope $end
   $scope module m_Mux_WriteData $end
    $var wire 32 ( out [31:0] $end
    $var wire 32 7 s0 [31:0] $end
    $var wire 32 8 s1 [31:0] $end
    $var wire 32 6 s2 [31:0] $end
    $var wire  2 < sel [1:0] $end
    $var wire 32 O! size [31:0] $end
   $upscope $end
   $scope module m_PC $end
    $var wire  1 )! clk $end
    $var wire 32 K! pc_i [31:0] $end
    $var wire 32 u pc_o [31:0] $end
    $var wire  1 *! rst $end
   $upscope $end
   $scope module m_PCadder $end
    $var wire 32 u a [31:0] $end
    $var wire 32 P! b [31:0] $end
    $var wire 32 v sum [31:0] $end
   $upscope $end
   $scope module m_PCadder_MEM $end
    $var wire 32 2 a [31:0] $end
    $var wire 32 P! b [31:0] $end
    $var wire 32 5 sum [31:0] $end
   $upscope $end
   $scope module m_Register $end
    $var wire  1 )! clk $end
    $var wire 32 & readData1 [31:0] $end
    $var wire 32 ' readData2 [31:0] $end
    $var wire  5 S readReg1 [4:0] $end
    $var wire  5 T readReg2 [4:0] $end
    $var wire  1 I regWrite $end
    $var wire 32 U regs[0] [31:0] $end
    $var wire 32 _ regs[10] [31:0] $end
    $var wire 32 ` regs[11] [31:0] $end
    $var wire 32 a regs[12] [31:0] $end
    $var wire 32 b regs[13] [31:0] $end
    $var wire 32 c regs[14] [31:0] $end
    $var wire 32 d regs[15] [31:0] $end
    $var wire 32 e regs[16] [31:0] $end
    $var wire 32 f regs[17] [31:0] $end
    $var wire 32 g regs[18] [31:0] $end
    $var wire 32 h regs[19] [31:0] $end
    $var wire 32 V regs[1] [31:0] $end
    $var wire 32 i regs[20] [31:0] $end
    $var wire 32 j regs[21] [31:0] $end
    $var wire 32 k regs[22] [31:0] $end
    $var wire 32 l regs[23] [31:0] $end
    $var wire 32 m regs[24] [31:0] $end
    $var wire 32 n regs[25] [31:0] $end
    $var wire 32 o regs[26] [31:0] $end
    $var wire 32 p regs[27] [31:0] $end
    $var wire 32 q regs[28] [31:0] $end
    $var wire 32 r regs[29] [31:0] $end
    $var wire 32 W regs[2] [31:0] $end
    $var wire 32 s regs[30] [31:0] $end
    $var wire 32 t regs[31] [31:0] $end
    $var wire 32 X regs[3] [31:0] $end
    $var wire 32 Y regs[4] [31:0] $end
    $var wire 32 Z regs[5] [31:0] $end
    $var wire 32 [ regs[6] [31:0] $end
    $var wire 32 \ regs[7] [31:0] $end
    $var wire 32 ] regs[8] [31:0] $end
    $var wire 32 ^ regs[9] [31:0] $end
    $var wire  1 *! rst $end
    $var wire 32 ( writeData [31:0] $end
    $var wire  5 L writeReg [4:0] $end
   $upscope $end
   $scope module m_ShiftLeftOne $end
    $var wire 32 1 i [31:0] $end
    $var wire 32 $ o [31:0] $end
   $upscope $end
   $scope module memRead_EX $end
    $var wire  1 )! clk $end
    $var wire  1 } data_i [0:0] $end
    $var wire  1 &! data_o [0:0] $end
    $var wire  1 *! rst $end
    $var wire 32 N! size [31:0] $end
   $upscope $end
   $scope module memRead_MEM $end
    $var wire  1 )! clk $end
    $var wire  1 &! data_i [0:0] $end
    $var wire  1 '! data_o [0:0] $end
    $var wire  1 *! rst $end
    $var wire 32 N! size [31:0] $end
   $upscope $end
   $scope module memWrite_EX $end
    $var wire  1 )! clk $end
    $var wire  1 ~ data_i [0:0] $end
    $var wire  1 @ data_o [0:0] $end
    $var wire  1 *! rst $end
    $var wire 32 N! size [31:0] $end
   $upscope $end
   $scope module memWrite_MEM $end
    $var wire  1 )! clk $end
    $var wire  1 @ data_i [0:0] $end
    $var wire  1 F data_o [0:0] $end
    $var wire  1 *! rst $end
    $var wire 32 N! size [31:0] $end
   $upscope $end
   $scope module memtoReg_EX $end
    $var wire  1 )! clk $end
    $var wire  2 z data_i [1:0] $end
    $var wire  2 : data_o [1:0] $end
    $var wire  1 *! rst $end
    $var wire 32 R! size [31:0] $end
   $upscope $end
   $scope module memtoReg_MEM $end
    $var wire  1 )! clk $end
    $var wire  2 : data_i [1:0] $end
    $var wire  2 ; data_o [1:0] $end
    $var wire  1 *! rst $end
    $var wire 32 R! size [31:0] $end
   $upscope $end
   $scope module memtoReg_WB $end
    $var wire  1 )! clk $end
    $var wire  2 ; data_i [1:0] $end
    $var wire  2 < data_o [1:0] $end
    $var wire  1 *! rst $end
    $var wire 32 R! size [31:0] $end
   $upscope $end
   $scope module regWrite_EX $end
    $var wire  1 )! clk $end
    $var wire  1 !! data_i [0:0] $end
    $var wire  1 A data_o [0:0] $end
    $var wire  1 *! rst $end
    $var wire 32 N! size [31:0] $end
   $upscope $end
   $scope module regWrite_MEM $end
    $var wire  1 )! clk $end
    $var wire  1 A data_i [0:0] $end
    $var wire  1 G data_o [0:0] $end
    $var wire  1 *! rst $end
    $var wire 32 N! size [31:0] $end
   $upscope $end
   $scope module regWrite_WB $end
    $var wire  1 )! clk $end
    $var wire  1 G data_i [0:0] $end
    $var wire  1 I data_o [0:0] $end
    $var wire  1 *! rst $end
    $var wire 32 N! size [31:0] $end
   $upscope $end
   $scope module zero_MEM $end
    $var wire  1 )! clk $end
    $var wire  1 #! data_i [0:0] $end
    $var wire  1 H data_o [0:0] $end
    $var wire  1 *! rst $end
    $var wire 32 N! size [31:0] $end
   $upscope $end
  $upscope $end
 $upscope $end
$enddefinitions $end


#0
b00000000000000000000000000000000 #
b00000000000000000000000000000000 $
b00000000000000000000000000000000 %
b00000000000000000000000000000000 &
b00000000000000000000000000000000 '
b00000000000000000000000000000000 (
b00000000000000000000000000000000 )
b00000000000000000000000000000000 *
b00000000000000000000000000000000 +
b00000000000000000000000000000000 ,
b00000000000000000000000000000000 -
b00000000000000000000000000000000 .
b00000000000000000000000000000000 /
b00000000000000000000000000000000 0
b00000000000000000000000000000000 1
b00000000000000000000000000000000 2
b00000000000000000000000000000000 3
b00000000000000000000000000000000 4
b00000000000000000000000000000100 5
b00000000000000000000000000000000 6
b00000000000000000000000000000000 7
b00000000000000000000000000000000 8
b0000 9
b00 :
b00 ;
b00 <
b000 =
0>
0?
0@
0A
0B
0C
0D
0E
0F
0G
0H
0I
b00000 J
b00000 K
b00000 L
b0000 M
b0000 N
b00000 O
0P
b000 Q
b0000000 R
b00000 S
b00000 T
b00000000000000000000000000000000 U
b00000000000000000000000000000000 V
b00000000000000000000000000000000 W
b00000000000000000000000000000000 X
b00000000000000000000000000000000 Y
b00000000000000000000000000000000 Z
b00000000000000000000000000000000 [
b00000000000000000000000000000000 \
b00000000000000000000000000000000 ]
b00000000000000000000000000000000 ^
b00000000000000000000000000000000 _
b00000000000000000000000000000000 `
b00000000000000000000000000000000 a
b00000000000000000000000000000000 b
b00000000000000000000000000000000 c
b00000000000000000000000000000000 d
b00000000000000000000000000000000 e
b00000000000000000000000000000000 f
b00000000000000000000000000000000 g
b00000000000000000000000000000000 h
b00000000000000000000000000000000 i
b00000000000000000000000000000000 j
b00000000000000000000000000000000 k
b00000000000000000000000000000000 l
b00000000000000000000000000000000 m
b00000000000000000000000000000000 n
b00000000000000000000000000000000 o
b00000000000000000000000000000000 p
b00000000000000000000000000000000 q
b00000000000000000000000000000000 r
b00000000000000000000000000000000 s
b00000000000000000000000000000000 t
b00000000000000000000000000000000 u
b00000000000000000000000000000100 v
b00000010000100000000000110010011 w
b00000000000000000000000000000000 x
b00000000000000000000000000000000 y
b00 z
b000 {
0|
0}
0~
0!!
0"!
0#!
0$!
0%!
0&!
0'!
b000000000000 (!
0)!
1*!
b00000000000000000000000000000000 +!
b00000000000000000000000000000000 ,!
b00000000000000000000000000000000 -!
b00000000000000000000000000000000 .!
b00000000000000000000000000000000 /!
b00000000000000000000000000000000 0!
b00000000000000000000000000000000 1!
b00000000000000000000000000000000 2!
b00000000000000000000000000000000 3!
b00000000000000000000000000000000 4!
b00000000000000000000000000000000 5!
b00000000000000000000000000000000 6!
b00000000000000000000000000000000 7!
b00000000000000000000000000000000 8!
b00000000000000000000000000000000 9!
b00000000000000000000000000000000 :!
b00000000000000000000000000000000 ;!
b00000000000000000000000000000000 <!
b00000000000000000000000000000000 =!
b00000000000000000000000000000000 >!
b00000000000000000000000000000000 ?!
b00000000000000000000000000000000 @!
b00000000000000000000000000000000 A!
b00000000000000000000000000000000 B!
b00000000000000000000000000000000 C!
b00000000000000000000000000000000 D!
b00000000000000000000000000000000 E!
b00000000000000000000000000000000 F!
b00000000000000000000000000000000 G!
b00000000000000000000000000000000 H!
b00000000000000000000000000000000 I!
b00000000000000000000000000000000 J!
b00000000000000000000000000000100 K!
b00000000000000000000000000000000 L!
b00000000000000000000000000000011 M!
b00000000000000000000000000000001 N!
b00000000000000000000000000100000 O!
b00000000000000000000000000000100 P!
b00000000000000000000000000000101 Q!
b00000000000000000000000000000010 R!
#1
b00000000000000000000000010000000 W
1)!
0*!
b00000000000000000000000010000000 -!
#2
b00000000000000000000000000100001 #
b00000010000100000000000110010011 -
b00000000000000000000000000000100 6
b00011 O
b0010011 R
b00001 T
b01 z
b001 {
1!!
1"!
b000101100100 (!
0)!
1*!
#3
b00000000000000000000000000000100 u
b00000000000000000000000000001000 v
b00000000000000000000000000010011 w
1)!
b00000000000000000000000000001000 K!
#4
b00000000000000000000000000000000 #
b00000000000000000000000001000010 $
b00000000000000000000000001000010 %
b00000000000000000000000000100001 )
b00000000000000000000000001000010 +
b00000000000000000000000000000100 ,
b00000000000000000000000000010011 -
b00000000000000000000000000100001 1
b01 :
b001 =
1A
1B
b00011 J
b00000 O
b00000 T
b00000000000000000000000000100001 x
1#!
0)!
#5
b00000000000000000000000000001000 u
b00000000000000000000000000001100 v
1)!
b00000000000000000000000000001100 K!
#6
b00000000000000000000000000000000 $
b00000000000000000000000000000100 %
b00000000000000000000000000000000 )
b00000000000000000000000000000100 *
b00000000000000000000000000000000 +
b00000000000000000000000000001000 ,
b00000000000000000000000000000100 .
b00000000000000000000000000000000 1
b00000000000000000000000001000010 4
b01 ;
1G
1H
b00000 J
b00011 K
b00000000000000000000000000000000 x
b00000000000000000000000000100001 y
0#!
0)!
#7
b00000000000000000000000000001100 u
b00000000000000000000000000010000 v
1)!
b00000000000000000000000000010000 K!
#8
b00000000000000000000000000001000 %
b00000000000000000000000000100001 (
b00000000000000000000000000001000 *
b00000000000000000000000000001100 ,
b00000000000000000000000000001000 .
b00000000000000000000000000000100 2
b00000000000000000000000000000100 4
b00000000000000000000000000001000 5
b00000000000000000000000000100001 8
b01 <
0H
1I
b00000 K
b00011 L
b00000000000000000000000000000000 y
0)!
#9
b00000000000000000000000000010000 u
b00000000000000000000000000010100 v
b11100100111000000000001000010011 w
1)!
b00000000000000000000000000010100 K!
#10
b11111111111111111111111001001110 #
b00000000000000000000000000001100 %
b00000000000000000000000000000000 (
b00000000000000000000000000001100 *
b00000000000000000000000000010000 ,
b11100100111000000000001000010011 -
b00000000000000000000000000001100 .
b00000000000000000000000000001000 2
b00000000000000000000000000001000 4
b00000000000000000000000000001100 5
b00000000000000000000000000001000 6
b00000000000000000000000000000000 8
b00000 L
b1000 N
b00100 O
b01110 T
b00000000000000000000000000100001 X
0)!
b00000000000000000000000000100001 .!
#11
b00000000000000000000000000010100 u
b00000000000000000000000000011000 v
b00000000000000000000000000010011 w
1)!
b00000000000000000000000000011000 K!
#12
b00000000000000000000000000000000 #
b11111111111111111111110010011100 $
b11111111111111111111110010101100 %
b11111111111111111111111001001110 )
b00000000000000000000000000010000 *
b11111111111111111111110010011100 +
b00000000000000000000000000010100 ,
b00000000000000000000000000010011 -
b00000000000000000000000000010000 .
b11111111111111111111111001001110 1
b00000000000000000000000000001100 2
b00000000000000000000000000001100 4
b00000000000000000000000000010000 5
b00000000000000000000000000001100 6
b00100 J
b1000 M
b0000 N
b00000 O
1P
b00000 T
b11111111111111111111111001001110 x
1#!
0)!
#13
b00000000000000000000000000011000 u
b00000000000000000000000000011100 v
1)!
b00000000000000000000000000011100 K!
#14
b00000000000000000000000000000000 $
b00000000000000000000000000010100 %
b00000000000000000000000000000000 )
b00000000000000000000000000010100 *
b00000000000000000000000000000000 +
b00000000000000000000000000011000 ,
b00000000000000000000000000010100 .
b00000000000000000000000000000000 1
b00000000000000000000000000010000 2
b11111111111111111111110010101100 4
b00000000000000000000000000010100 5
b00000000000000000000000000010000 6
1H
b00000 J
b00100 K
b0000 M
0P
b00000000000000000000000000000000 x
b11111111111111111111111001001110 y
0#!
0)!
#15
b00000000000000000000000000011100 u
b00000000000000000000000000100000 v
1)!
b00000000000000000000000000100000 K!
#16
b00000000000000000000000000011000 %
b11111111111111111111111001001110 (
b00000000000000000000000000011000 *
b00000000000000000000000000011100 ,
b00000000000000000000000000011000 .
b00000000000000000000000000010100 2
b00000000000000000000000000010100 4
b00000000000000000000000000011000 5
b00000000000000000000000000010100 6
b11111111111111111111111001001110 8
0H
b00000 K
b00100 L
b00000000000000000000000000000000 y
0)!
#17
b00000000000000000000000000100000 u
b00000000000000000000000000100100 v
b00000000010000011000001010110011 w
1)!
b00000000000000000000000000100100 K!
#18
b00000000000000000000000000011100 %
b00000000000000000000000000100001 &
b11111111111111111111111001001110 '
b00000000000000000000000000000000 (
b00000000000000000000000000011100 *
b00000000000000000000000000100000 ,
b00000000010000011000001010110011 -
b00000000000000000000000000011100 .
b00000000000000000000000000011000 2
b00000000000000000000000000011000 4
b00000000000000000000000000011100 5
b00000000000000000000000000011000 6
b00000000000000000000000000000000 8
b00000 L
b00101 O
b0110011 R
b00011 S
b00100 T
b11111111111111111111111001001110 Y
b000 {
0"!
b000100100000 (!
0)!
b11111111111111111111111001001110 /!
#19
b00000000000000000000000000100100 u
b00000000000000000000000000101000 v
b00000000000000000000000000010011 w
1)!
b00000000000000000000000000101000 K!
#20
b00000000000000000000000000100000 %
b00000000000000000000000000000000 &
b00000000000000000000000000000000 '
b11111111111111111111111001001110 )
b00000000000000000000000000100000 *
b00000000000000000000000000100100 ,
b00000000000000000000000000010011 -
b00000000000000000000000000100000 .
b00000000000000000000000000100001 /
b11111111111111111111111001001110 0
b00000000000000000000000000011100 2
b00000000000000000000000000011100 4
b00000000000000000000000000100000 5
b00000000000000000000000000011100 6
b000 =
0B
b00101 J
b00000 O
b0010011 R
b00000 S
b00000 T
b11111111111111111111111001101111 x
b001 {
1"!
1#!
b000101100100 (!
0)!
#21
b00000000000000000000000000101000 u
b00000000000000000000000000101100 v
1)!
b00000000000000000000000000101100 K!
#22
b00000000000000000000000000100100 %
b00000000000000000000000000000000 )
b00000000000000000000000000100100 *
b00000000000000000000000000101000 ,
b00000000000000000000000000100100 .
b00000000000000000000000000000000 /
b00000000000000000000000000000000 0
b00000000000000000000000000100000 2
b11111111111111111111111001001110 3
b00000000000000000000000000100000 4
b00000000000000000000000000100100 5
b00000000000000000000000000100000 6
b001 =
1B
1H
b00000 J
b00101 K
b00000000000000000000000000000000 x
b11111111111111111111111001101111 y
0#!
0)!
#23
b00000000000000000000000000101100 u
b00000000000000000000000000110000 v
1)!
b00000000000000000000000000110000 K!
#24
b00000000000000000000000000101000 %
b11111111111111111111111001101111 (
b00000000000000000000000000101000 *
b00000000000000000000000000101100 ,
b00000000000000000000000000101000 .
b00000000000000000000000000100100 2
b00000000000000000000000000000000 3
b00000000000000000000000000100100 4
b00000000000000000000000000101000 5
b00000000000000000000000000100100 6
b11111111111111111111111001101111 8
0H
b00000 K
b00101 L
b00000000000000000000000000000000 y
0)!
#25
b00000000000000000000000000110000 u
b00000000000000000000000000110100 v
b01000000001100101000001100110011 w
1)!
b00000000000000000000000000110100 K!
#26
b00000000000000000000000000101100 %
b11111111111111111111111001101111 &
b00000000000000000000000000100001 '
b00000000000000000000000000000000 (
b00000000000000000000000000101100 *
b00000000000000000000000000110000 ,
b01000000001100101000001100110011 -
b00000000000000000000000000101100 .
b00000000000000000000000000101000 2
b00000000000000000000000000101000 4
b00000000000000000000000000101100 5
b00000000000000000000000000101000 6
b00000000000000000000000000000000 8
b00000 L
b1000 N
b00110 O
b0110011 R
b00101 S
b00011 T
b11111111111111111111111001101111 Z
b000 {
0"!
b000100100000 (!
0)!
b11111111111111111111111001101111 0!
#27
b00000000000000000000000000110100 u
b00000000000000000000000000111000 v
b00000000000000000000000000000000 w
1)!
b00000000000000000000000000111000 K!
